﻿4812 15:31:28 INFO  [Index=sitecore_analytics_index] Initializing TimedIndexStrategy with interval '00:01:00'.
4812 15:31:28 INFO  [Index=sitecore_core_index] Initializing IntervalAsynchronousUpdateStrategy with interval '00:01:00'.
4812 15:31:28 INFO  [Index=sitecore_core_index] Initializing SitecoreItemCrawler. DB:core / Root:/sitecore
4812 15:31:28 INFO  [Index=sitecore_master_index] Initializing SynchronousStrategy.
4812 15:31:28 INFO  [Index=sitecore_master_index] Initializing SitecoreItemCrawler. DB:master / Root:/sitecore
4812 15:31:28 INFO  [Index=sitecore_web_index] Initializing OnPublishEndAsynchronousStrategy.
4812 15:31:28 INFO  [Index=sitecore_web_index] Initializing SitecoreItemCrawler. DB:web / Root:/sitecore
4812 15:31:28 INFO  [Index=sitecore_marketing_asset_index_master] Initializing SynchronousStrategy.
4812 15:31:28 INFO  [Index=sitecore_marketing_asset_index_master] Initializing SitecoreItemCrawler. DB:master / Root:/sitecore/media library
4812 15:31:28 INFO  [Index=sitecore_marketing_asset_index_web] Initializing OnPublishEndAsynchronousStrategy.
4812 15:31:28 INFO  [Index=sitecore_marketing_asset_index_web] Initializing SitecoreItemCrawler. DB:web / Root:/sitecore/media library
4812 15:31:28 INFO  [Index=sitecore_testing_index] Initializing SynchronousStrategy.
4812 15:31:28 INFO  [Index=sitecore_testing_index] Initializing SitecoreItemCrawler. DB:master / Root:/sitecore/system/Marketing Control Panel/Test Lab
4812 15:31:28 INFO  [Index=sitecore_suggested_test_index] Initializing SitecoreItemCrawler. DB:master / Root:/sitecore/content
4812 15:31:28 INFO  [Index=sitecore_fxm_master_index] Initializing SynchronousStrategy.
4812 15:31:28 INFO  [Index=sitecore_fxm_master_index] Initializing SitecoreItemCrawler. DB:master / Root:/sitecore/system/Marketing Control Panel/fxm/
4812 15:31:28 INFO  [Index=sitecore_fxm_web_index] Initializing OnPublishEndAsynchronousStrategy.
4812 15:31:28 INFO  [Index=sitecore_fxm_web_index] Initializing SitecoreItemCrawler. DB:web / Root:/sitecore/system/Marketing Control Panel/fxm/
4812 15:31:28 INFO  [Index=sitecore_list_index] Initializing SynchronousStrategy.
4812 15:31:28 INFO  [Index=sitecore_list_index] Initializing SitecoreItemCrawler. DB:master / Root:/sitecore/system/List Manager/All Lists
4812 15:31:28 INFO  [Index=social_messages_master] Initializing SynchronousStrategy.
4812 15:31:28 INFO  [Index=social_messages_master] Initializing SitecoreItemCrawler. DB:master / Root:/sitecore/social/Messages
4812 15:31:28 INFO  [Index=social_messages_web] Initializing OnPublishEndAsynchronousStrategy.
4812 15:31:28 INFO  [Index=social_messages_web] Initializing SitecoreItemCrawler. DB:web / Root:/sitecore/social/Messages
4812 15:31:28 INFO  [Index=sitecore_analytics_index] Initializing TimedIndexStrategy with interval '00:01:00'.
4812 15:31:28 INFO  [Index=sitecore_core_index] Initializing IntervalAsynchronousUpdateStrategy with interval '00:01:00'.
4812 15:31:28 INFO  [Index=sitecore_master_index] Initializing SynchronousStrategy.
4812 15:31:28 INFO  [Index=sitecore_web_index] Initializing OnPublishEndAsynchronousStrategy.
4812 15:31:28 INFO  [Index=sitecore_marketing_asset_index_master] Initializing SynchronousStrategy.
4812 15:31:28 INFO  [Index=sitecore_marketing_asset_index_web] Initializing OnPublishEndAsynchronousStrategy.
4812 15:31:28 INFO  [Index=sitecore_testing_index] Initializing SynchronousStrategy.
4812 15:31:28 INFO  [Index=sitecore_fxm_master_index] Initializing SynchronousStrategy.
4812 15:31:28 INFO  [Index=sitecore_fxm_web_index] Initializing OnPublishEndAsynchronousStrategy.
4812 15:31:28 INFO  [Index=sitecore_list_index] Initializing SynchronousStrategy.
4812 15:31:28 INFO  [Index=social_messages_master] Initializing SynchronousStrategy.
4812 15:31:28 INFO  [Index=social_messages_web] Initializing OnPublishEndAsynchronousStrategy.
ManagedPoolThread #10 15:41:32 WARN  [Index=sitecore_suggested_test_index] Reset Started
ManagedPoolThread #10 15:41:33 WARN  [Index=sitecore_suggested_test_index] Reset Ended
ManagedPoolThread #10 15:41:33 WARN  [Index=sitecore_suggested_test_index] Full Rebuild Started
ManagedPoolThread #10 15:41:33 WARN  [Index=sitecore_suggested_test_index] Full Rebuild Ended
