﻿18396 16:24:16 INFO  [Index=sitecore_analytics_index] Initializing TimedIndexStrategy with interval '00:01:00'.
18396 16:24:16 INFO  [Index=sitecore_core_index] Initializing IntervalAsynchronousUpdateStrategy with interval '00:01:00'.
18396 16:24:16 INFO  [Index=sitecore_core_index] Initializing SitecoreItemCrawler. DB:core / Root:/sitecore
18396 16:24:16 INFO  [Index=sitecore_master_index] Initializing SynchronousStrategy.
18396 16:24:16 INFO  [Index=sitecore_master_index] Initializing SitecoreItemCrawler. DB:master / Root:/sitecore
18396 16:24:16 INFO  [Index=sitecore_web_index] Initializing OnPublishEndAsynchronousStrategy.
18396 16:24:16 INFO  [Index=sitecore_web_index] Initializing SitecoreItemCrawler. DB:web / Root:/sitecore
18396 16:24:16 INFO  [Index=sitecore_marketing_asset_index_master] Initializing SynchronousStrategy.
18396 16:24:16 INFO  [Index=sitecore_marketing_asset_index_master] Initializing SitecoreItemCrawler. DB:master / Root:/sitecore/media library
18396 16:24:16 INFO  [Index=sitecore_marketing_asset_index_web] Initializing OnPublishEndAsynchronousStrategy.
18396 16:24:16 INFO  [Index=sitecore_marketing_asset_index_web] Initializing SitecoreItemCrawler. DB:web / Root:/sitecore/media library
18396 16:24:16 INFO  [Index=sitecore_testing_index] Initializing SynchronousStrategy.
18396 16:24:16 INFO  [Index=sitecore_testing_index] Initializing SitecoreItemCrawler. DB:master / Root:/sitecore/system/Marketing Control Panel/Test Lab
18396 16:24:16 INFO  [Index=sitecore_suggested_test_index] Initializing SitecoreItemCrawler. DB:master / Root:/sitecore/content
18396 16:24:16 INFO  [Index=sitecore_fxm_master_index] Initializing SynchronousStrategy.
18396 16:24:16 INFO  [Index=sitecore_fxm_master_index] Initializing SitecoreItemCrawler. DB:master / Root:/sitecore/system/Marketing Control Panel/fxm/
18396 16:24:16 INFO  [Index=sitecore_fxm_web_index] Initializing OnPublishEndAsynchronousStrategy.
18396 16:24:16 INFO  [Index=sitecore_fxm_web_index] Initializing SitecoreItemCrawler. DB:web / Root:/sitecore/system/Marketing Control Panel/fxm/
18396 16:24:16 INFO  [Index=sitecore_list_index] Initializing SynchronousStrategy.
18396 16:24:16 INFO  [Index=sitecore_list_index] Initializing SitecoreItemCrawler. DB:master / Root:/sitecore/system/List Manager/All Lists
18396 16:24:16 INFO  [Index=social_messages_master] Initializing SynchronousStrategy.
18396 16:24:16 INFO  [Index=social_messages_master] Initializing SitecoreItemCrawler. DB:master / Root:/sitecore/social/Messages
18396 16:24:16 INFO  [Index=social_messages_web] Initializing OnPublishEndAsynchronousStrategy.
18396 16:24:16 INFO  [Index=social_messages_web] Initializing SitecoreItemCrawler. DB:web / Root:/sitecore/social/Messages
18396 16:24:16 INFO  [Index=sitecore_analytics_index] Initializing TimedIndexStrategy with interval '00:01:00'.
18396 16:24:16 INFO  [Index=sitecore_core_index] Initializing IntervalAsynchronousUpdateStrategy with interval '00:01:00'.
18396 16:24:16 INFO  [Index=sitecore_master_index] Initializing SynchronousStrategy.
18396 16:24:16 INFO  [Index=sitecore_web_index] Initializing OnPublishEndAsynchronousStrategy.
18396 16:24:16 INFO  [Index=sitecore_marketing_asset_index_master] Initializing SynchronousStrategy.
18396 16:24:16 INFO  [Index=sitecore_marketing_asset_index_web] Initializing OnPublishEndAsynchronousStrategy.
18396 16:24:16 INFO  [Index=sitecore_testing_index] Initializing SynchronousStrategy.
18396 16:24:16 INFO  [Index=sitecore_fxm_master_index] Initializing SynchronousStrategy.
18396 16:24:16 INFO  [Index=sitecore_fxm_web_index] Initializing OnPublishEndAsynchronousStrategy.
18396 16:24:16 INFO  [Index=sitecore_list_index] Initializing SynchronousStrategy.
18396 16:24:16 INFO  [Index=social_messages_master] Initializing SynchronousStrategy.
18396 16:24:16 INFO  [Index=social_messages_web] Initializing OnPublishEndAsynchronousStrategy.
43288 16:24:19 WARN  Hosting Environment Stop Requested : immediate=False
43288 16:24:19 WARN  [Index=sitecore_analytics_index] Crawling Stopped
43288 16:24:19 WARN  [Index=sitecore_core_index] Crawling Stopped
43288 16:24:19 WARN  [Index=sitecore_master_index] Crawling Stopped
43288 16:24:19 WARN  [Index=sitecore_web_index] Crawling Stopped
43288 16:24:19 WARN  [Index=sitecore_marketing_asset_index_master] Crawling Stopped
43288 16:24:19 WARN  [Index=sitecore_marketing_asset_index_web] Crawling Stopped
43288 16:24:19 WARN  [Index=sitecore_testing_index] Crawling Stopped
43288 16:24:19 WARN  [Index=sitecore_suggested_test_index] Crawling Stopped
43288 16:24:19 WARN  [Index=sitecore_fxm_master_index] Crawling Stopped
43288 16:24:19 WARN  [Index=sitecore_fxm_web_index] Crawling Stopped
43288 16:24:19 WARN  [Index=sitecore_list_index] Crawling Stopped
43288 16:24:19 WARN  [Index=social_messages_master] Crawling Stopped
43288 16:24:19 WARN  [Index=social_messages_web] Crawling Stopped
43288 16:24:19 WARN  [Index=sitecore_analytics_index] Crawling Stopped
43288 16:24:19 WARN  [Index=sitecore_core_index] Crawling Stopped
43288 16:24:19 WARN  [Index=sitecore_master_index] Crawling Stopped
43288 16:24:19 WARN  [Index=sitecore_web_index] Crawling Stopped
43288 16:24:19 WARN  [Index=sitecore_marketing_asset_index_master] Crawling Stopped
43288 16:24:19 WARN  [Index=sitecore_marketing_asset_index_web] Crawling Stopped
43288 16:24:19 WARN  [Index=sitecore_testing_index] Crawling Stopped
43288 16:24:19 WARN  [Index=sitecore_suggested_test_index] Crawling Stopped
43288 16:24:19 WARN  [Index=sitecore_fxm_master_index] Crawling Stopped
43288 16:24:19 WARN  [Index=sitecore_fxm_web_index] Crawling Stopped
43288 16:24:19 WARN  [Index=sitecore_list_index] Crawling Stopped
43288 16:24:19 WARN  [Index=social_messages_master] Crawling Stopped
43288 16:24:19 WARN  [Index=social_messages_web] Crawling Stopped
28516 16:24:22 WARN  Resuming indexing after package has been installed.
43288 16:24:49 WARN  Hosting Environment Stop Requested : immediate=True
