﻿19020 14:12:51 INFO  [Index=sitecore_analytics_index] Initializing TimedIndexStrategy with interval '00:01:00'.
19020 14:12:51 INFO  [Index=sitecore_core_index] Initializing IntervalAsynchronousUpdateStrategy with interval '00:01:00'.
19020 14:12:51 INFO  [Index=sitecore_core_index] Initializing SitecoreItemCrawler. DB:core / Root:/sitecore
19020 14:12:51 INFO  [Index=sitecore_master_index] Initializing SynchronousStrategy.
19020 14:12:51 INFO  [Index=sitecore_master_index] Initializing SitecoreItemCrawler. DB:master / Root:/sitecore
19020 14:12:51 INFO  [Index=sitecore_web_index] Initializing OnPublishEndAsynchronousStrategy.
19020 14:12:51 INFO  [Index=sitecore_web_index] Initializing SitecoreItemCrawler. DB:web / Root:/sitecore
19020 14:12:51 INFO  [Index=sitecore_marketing_asset_index_master] Initializing SynchronousStrategy.
19020 14:12:51 INFO  [Index=sitecore_marketing_asset_index_master] Initializing SitecoreItemCrawler. DB:master / Root:/sitecore/media library
19020 14:12:51 INFO  [Index=sitecore_marketing_asset_index_web] Initializing OnPublishEndAsynchronousStrategy.
19020 14:12:51 INFO  [Index=sitecore_marketing_asset_index_web] Initializing SitecoreItemCrawler. DB:web / Root:/sitecore/media library
19020 14:12:51 INFO  [Index=sitecore_testing_index] Initializing SynchronousStrategy.
19020 14:12:51 INFO  [Index=sitecore_testing_index] Initializing SitecoreItemCrawler. DB:master / Root:/sitecore/system/Marketing Control Panel/Test Lab
19020 14:12:51 INFO  [Index=sitecore_suggested_test_index] Initializing SitecoreItemCrawler. DB:master / Root:/sitecore/content
19020 14:12:51 INFO  [Index=sitecore_fxm_master_index] Initializing SynchronousStrategy.
19020 14:12:51 INFO  [Index=sitecore_fxm_master_index] Initializing SitecoreItemCrawler. DB:master / Root:/sitecore/system/Marketing Control Panel/fxm/
19020 14:12:51 INFO  [Index=sitecore_fxm_web_index] Initializing OnPublishEndAsynchronousStrategy.
19020 14:12:51 INFO  [Index=sitecore_fxm_web_index] Initializing SitecoreItemCrawler. DB:web / Root:/sitecore/system/Marketing Control Panel/fxm/
19020 14:12:51 INFO  [Index=sitecore_list_index] Initializing SynchronousStrategy.
19020 14:12:51 INFO  [Index=sitecore_list_index] Initializing SitecoreItemCrawler. DB:master / Root:/sitecore/system/List Manager/All Lists
19020 14:12:51 INFO  [Index=social_messages_master] Initializing SynchronousStrategy.
19020 14:12:51 INFO  [Index=social_messages_master] Initializing SitecoreItemCrawler. DB:master / Root:/sitecore/social/Messages
19020 14:12:51 INFO  [Index=social_messages_web] Initializing OnPublishEndAsynchronousStrategy.
19020 14:12:51 INFO  [Index=social_messages_web] Initializing SitecoreItemCrawler. DB:web / Root:/sitecore/social/Messages
19020 14:12:51 INFO  [Index=sitecore_analytics_index] Initializing TimedIndexStrategy with interval '00:01:00'.
19020 14:12:51 INFO  [Index=sitecore_core_index] Initializing IntervalAsynchronousUpdateStrategy with interval '00:01:00'.
19020 14:12:51 INFO  [Index=sitecore_master_index] Initializing SynchronousStrategy.
19020 14:12:51 INFO  [Index=sitecore_web_index] Initializing OnPublishEndAsynchronousStrategy.
19020 14:12:51 INFO  [Index=sitecore_marketing_asset_index_master] Initializing SynchronousStrategy.
19020 14:12:51 INFO  [Index=sitecore_marketing_asset_index_web] Initializing OnPublishEndAsynchronousStrategy.
19020 14:12:51 INFO  [Index=sitecore_testing_index] Initializing SynchronousStrategy.
19020 14:12:51 INFO  [Index=sitecore_fxm_master_index] Initializing SynchronousStrategy.
19020 14:12:51 INFO  [Index=sitecore_fxm_web_index] Initializing OnPublishEndAsynchronousStrategy.
19020 14:12:51 INFO  [Index=sitecore_list_index] Initializing SynchronousStrategy.
19020 14:12:51 INFO  [Index=social_messages_master] Initializing SynchronousStrategy.
19020 14:12:51 INFO  [Index=social_messages_web] Initializing OnPublishEndAsynchronousStrategy.
17420 14:19:44 INFO  [Index=sitecore_web_index] Updating '1356' items from Event Queue.
