﻿9712 11:31:03 INFO  [Index=sitecore_analytics_index] Initializing TimedIndexStrategy with interval '00:01:00'.
9712 11:31:03 INFO  [Index=sitecore_core_index] Initializing IntervalAsynchronousUpdateStrategy with interval '00:01:00'.
9712 11:31:03 INFO  [Index=sitecore_core_index] Initializing SitecoreItemCrawler. DB:core / Root:/sitecore
9712 11:31:03 INFO  [Index=sitecore_master_index] Initializing SynchronousStrategy.
9712 11:31:03 INFO  [Index=sitecore_master_index] Initializing SitecoreItemCrawler. DB:master / Root:/sitecore
9712 11:31:03 INFO  [Index=sitecore_web_index] Initializing OnPublishEndAsynchronousStrategy.
9712 11:31:03 INFO  [Index=sitecore_web_index] Initializing SitecoreItemCrawler. DB:web / Root:/sitecore
9712 11:31:03 INFO  [Index=sitecore_marketing_asset_index_master] Initializing SynchronousStrategy.
9712 11:31:03 INFO  [Index=sitecore_marketing_asset_index_master] Initializing SitecoreItemCrawler. DB:master / Root:/sitecore/media library
9712 11:31:03 INFO  [Index=sitecore_marketing_asset_index_web] Initializing OnPublishEndAsynchronousStrategy.
9712 11:31:03 INFO  [Index=sitecore_marketing_asset_index_web] Initializing SitecoreItemCrawler. DB:web / Root:/sitecore/media library
9712 11:31:03 INFO  [Index=sitecore_testing_index] Initializing SynchronousStrategy.
9712 11:31:03 INFO  [Index=sitecore_testing_index] Initializing SitecoreItemCrawler. DB:master / Root:/sitecore/system/Marketing Control Panel/Test Lab
9712 11:31:03 INFO  [Index=sitecore_suggested_test_index] Initializing SitecoreItemCrawler. DB:master / Root:/sitecore/content
9712 11:31:03 INFO  [Index=sitecore_fxm_master_index] Initializing SynchronousStrategy.
9712 11:31:03 INFO  [Index=sitecore_fxm_master_index] Initializing SitecoreItemCrawler. DB:master / Root:/sitecore/system/Marketing Control Panel/fxm/
9712 11:31:03 INFO  [Index=sitecore_fxm_web_index] Initializing OnPublishEndAsynchronousStrategy.
9712 11:31:03 INFO  [Index=sitecore_fxm_web_index] Initializing SitecoreItemCrawler. DB:web / Root:/sitecore/system/Marketing Control Panel/fxm/
9712 11:31:03 INFO  [Index=sitecore_list_index] Initializing SynchronousStrategy.
9712 11:31:03 INFO  [Index=sitecore_list_index] Initializing SitecoreItemCrawler. DB:master / Root:/sitecore/system/List Manager/All Lists
9712 11:31:03 INFO  [Index=social_messages_master] Initializing SynchronousStrategy.
9712 11:31:03 INFO  [Index=social_messages_master] Initializing SitecoreItemCrawler. DB:master / Root:/sitecore/social/Messages
9712 11:31:03 INFO  [Index=social_messages_web] Initializing OnPublishEndAsynchronousStrategy.
9712 11:31:03 INFO  [Index=social_messages_web] Initializing SitecoreItemCrawler. DB:web / Root:/sitecore/social/Messages
9712 11:31:03 INFO  [Index=sitecore_analytics_index] Initializing TimedIndexStrategy with interval '00:01:00'.
9712 11:31:03 INFO  [Index=sitecore_core_index] Initializing IntervalAsynchronousUpdateStrategy with interval '00:01:00'.
9712 11:31:03 INFO  [Index=sitecore_master_index] Initializing SynchronousStrategy.
9712 11:31:03 INFO  [Index=sitecore_web_index] Initializing OnPublishEndAsynchronousStrategy.
9712 11:31:03 INFO  [Index=sitecore_marketing_asset_index_master] Initializing SynchronousStrategy.
9712 11:31:03 INFO  [Index=sitecore_marketing_asset_index_web] Initializing OnPublishEndAsynchronousStrategy.
9712 11:31:03 INFO  [Index=sitecore_testing_index] Initializing SynchronousStrategy.
9712 11:31:03 INFO  [Index=sitecore_fxm_master_index] Initializing SynchronousStrategy.
9712 11:31:03 INFO  [Index=sitecore_fxm_web_index] Initializing OnPublishEndAsynchronousStrategy.
9712 11:31:03 INFO  [Index=sitecore_list_index] Initializing SynchronousStrategy.
9712 11:31:03 INFO  [Index=social_messages_master] Initializing SynchronousStrategy.
9712 11:31:03 INFO  [Index=social_messages_web] Initializing OnPublishEndAsynchronousStrategy.
