﻿19008 15:26:33 INFO  HttpModule is being initialized
19008 15:26:34 INFO  
19008 15:26:34 INFO  **********************************************************************
19008 15:26:34 INFO  **********************************************************************
19008 15:26:34 INFO  Sitecore started
19008 15:26:34 INFO  Sitecore.NET 8.0 (rev. 150621)
19008 15:26:34 INFO  
19008 15:26:34 INFO  d:\development\sitecoretest\website\bin\antlr3.runtime.dll (Antlr3.Runtime)
19008 15:26:34 INFO  d:\development\sitecoretest\website\bin\castle.core.dll (Castle.Core, Castle.Core 3.3.3 for .NETFramework v4.5, 3.3.3.58)
19008 15:26:34 INFO  d:\development\sitecoretest\website\bin\componentart.web.ui.dll ()
19008 15:26:34 INFO  d:\development\sitecoretest\website\bin\csquery.dll (CsQuery, CsQuery is a CSS selector engine and jQuery port for .NET 4 and C#)
19008 15:26:34 INFO  d:\development\sitecoretest\website\bin\customfields.accountselector.dll (AccountSelectorAssembly)
19008 15:26:34 INFO  d:\development\sitecoretest\website\bin\dotless.core.dll (dotless v1.4.0.0, Dynamic CSS for .net, 1.4.0.0)
19008 15:26:34 INFO  d:\development\sitecoretest\website\bin\dotnetopenauth.dll (DotNetOpenAuth, 1c99bf16c5b570cadcf27d0b9ce3d598d06b34ca)
19008 15:26:34 INFO  d:\development\sitecoretest\website\bin\ecmascript.net.dll (Modified version of the EcmaScript.NET assembly)
19008 15:26:34 INFO  d:\development\sitecoretest\website\bin\entityframework.dll (Microsoft® .NET Framework, EntityFramework.dll, 5.0.0.net45)
19008 15:26:34 INFO  d:\development\sitecoretest\website\bin\facebook.dll (Facebook C# SDK, Facebook C# SDK)
19008 15:26:34 INFO  d:\development\sitecoretest\website\bin\facebookapi.dll (FacebookAPI)
19008 15:26:34 INFO  d:\development\sitecoretest\website\bin\google.apis.authentication.oauth2.dll (OAuth2 Authentication Library)
19008 15:26:34 INFO  d:\development\sitecoretest\website\bin\google.apis.dll ()
19008 15:26:34 INFO  d:\development\sitecoretest\website\bin\google.apis.plus.v1.dll (Google.Apis.Plus.v1)
19008 15:26:34 INFO  d:\development\sitecoretest\website\bin\hammock.clientprofile.dll (Hammock)
19008 15:26:34 INFO  d:\development\sitecoretest\website\bin\htmlagilitypack.dll (Html Agility Pack, 1.4.6.0)
19008 15:26:34 INFO  d:\development\sitecoretest\website\bin\iesi.collections.dll (Iesi.Collections, Enhanced Collections for .NET.  Code was published at http://www.codeproject.com/csharp/sets.asp, 1.0)
19008 15:26:34 INFO  d:\development\sitecoretest\website\bin\ithit.webdav.server.dll (WebDav Server .Net v2, IT Hit WebDAV Server .Net v2)
19008 15:26:34 INFO  d:\development\sitecoretest\website\bin\launchsitecore.dll (LaunchSitecore)
19008 15:26:34 INFO  d:\development\sitecoretest\website\bin\lucene.net.contrib.analyzers.dll (Lucene.Net.Contrib.Analyzers)
19008 15:26:34 INFO  d:\development\sitecoretest\website\bin\lucene.net.contrib.core.dll (Lucene.Net.Contrib.Core, Contributions to the Lucene.Net core library)
19008 15:26:34 INFO  d:\development\sitecoretest\website\bin\lucene.net.contrib.fastvectorhighlighter.dll (Lucene.Net.Contrib.FastVectorHighlighter, FastVectorHighlighter for Lucene.Net)
19008 15:26:34 INFO  d:\development\sitecoretest\website\bin\lucene.net.contrib.highlighter.dll (Lucene.Net.Contrib.Highlighter, The Apache Software Foundation Lucene.Net a full-text search engine library, 2.3.2)
19008 15:26:34 INFO  d:\development\sitecoretest\website\bin\lucene.net.contrib.memory.dll (Contrib.Memory)
19008 15:26:34 INFO  d:\development\sitecoretest\website\bin\lucene.net.contrib.queries.dll (Lucene.Net.Contrib.Queries)
19008 15:26:34 INFO  d:\development\sitecoretest\website\bin\lucene.net.contrib.regex.dll (Lucene.Net.Contrib.Regex)
19008 15:26:34 INFO  d:\development\sitecoretest\website\bin\lucene.net.contrib.simplefacetedsearch.dll (Lucene.Net.SimpleFacetedSearch, SimpleFacetedSearch for Lucene.Net)
19008 15:26:34 INFO  d:\development\sitecoretest\website\bin\lucene.net.contrib.snowball.dll (Lucene.Net.Contrib.Snowball, The Apache Software Foundation Lucene.Net a full-text search engine library, 2.0)
19008 15:26:34 INFO  d:\development\sitecoretest\website\bin\lucene.net.contrib.spellchecker.dll (SpellChecker.Net, The Apache Software Foundation Lucene.Net a full-text search engine library, 3.0.3)
19008 15:26:34 INFO  d:\development\sitecoretest\website\bin\lucene.net.dll (Lucene.Net, The Apache Software Foundation Lucene.Net a full-text search engine library, 3.0.3)
19008 15:26:34 INFO  d:\development\sitecoretest\website\bin\microsoft.aspnet.identity.core.dll (Microsoft.AspNet.Identity.Core)
19008 15:26:34 INFO  d:\development\sitecoretest\website\bin\microsoft.owin.dll (Microsoft OWIN, 3.0.1)
19008 15:26:34 INFO  d:\development\sitecoretest\website\bin\microsoft.owin.host.systemweb.dll (Microsoft OWIN, 3.0.1)
19008 15:26:34 INFO  d:\development\sitecoretest\website\bin\microsoft.owin.security.cookies.dll (Microsoft OWIN, 3.0.1)
19008 15:26:34 INFO  d:\development\sitecoretest\website\bin\microsoft.owin.security.dll (Microsoft OWIN, 3.0.1)
19008 15:26:34 INFO  d:\development\sitecoretest\website\bin\microsoft.owin.security.jwt.dll (Microsoft OWIN, 3.0.1)
19008 15:26:34 INFO  d:\development\sitecoretest\website\bin\microsoft.owin.security.oauth.dll (Microsoft OWIN, 3.0.1)
19008 15:26:34 INFO  d:\development\sitecoretest\website\bin\microsoft.servicebus.dll (Microsoft(R) Codename Appserver, Microsoft ServiceBus)
19008 15:26:34 INFO  d:\development\sitecoretest\website\bin\microsoft.web.infrastructure.dll (Microsoft ASP.Net WebPages)
19008 15:26:34 INFO  d:\development\sitecoretest\website\bin\microsoft.windowsazure.configuration.dll (Microsoft.WindowsAzure.Configuration, Configuration API for Windows Azure services)
19008 15:26:34 INFO  d:\development\sitecoretest\website\bin\mongodb.bson.dll (MongoDB.Bson, Official 10gen supported C# BSON library. See http://www.mongodb.org/display/DOCS/CSharp+Language+Center for more details, {version: '1.8.3.9', semver: '1.8.3', commit: '28c1204b9d0e70ca2648a6f90f9a29035e7ad62c', commit_date: '2013-09-30 12:07:25'})
19008 15:26:34 INFO  d:\development\sitecoretest\website\bin\mongodb.driver.dll (MongoDB.Driver, Official 10gen supported C# driver for MongoDB.  See http://www.mongodb.org/display/DOCS/CSharp+Language+Center for more details, {version: '1.8.3.9', semver: '1.8.3', commit: '28c1204b9d0e70ca2648a6f90f9a29035e7ad62c', commit_date: '2013-09-30 12:07:25'})
19008 15:26:34 INFO  d:\development\sitecoretest\website\bin\mvp.xml.dll (MVP XML Library)
19008 15:26:34 INFO  d:\development\sitecoretest\website\bin\netteller.core.dll (Netteller.Core, Netteller core code / package)
19008 15:26:34 INFO  d:\development\sitecoretest\website\bin\netteller.domain.dll (Netteller.Domain, Netteller Domain)
19008 15:26:34 INFO  d:\development\sitecoretest\website\bin\newtonsoft.json.dll (Json.NET, Json.NET is a popular high-performance JSON framework for .NET)
19008 15:26:34 INFO  d:\development\sitecoretest\website\bin\ninject.dll (Ninject: Lightweight dependency injection for .NET, IoC container)
19008 15:26:34 INFO  d:\development\sitecoretest\website\bin\ninject.extensions.interception.dll (Ninject.Extensions.Interception: Interception extension for Ninject, Adds support for interception to Ninject)
19008 15:26:34 INFO  d:\development\sitecoretest\website\bin\ninject.extensions.interception.dynamicproxy.dll (Ninject.Extensions.Interception: Interception extension for Ninject, Adds support for interception to Ninject using Castle Dynamic Proxy 2)
19008 15:26:34 INFO  d:\development\sitecoretest\website\bin\ninject.web.common.dll (Ninject.Web.Common: Web Common Extension for Ninject, Bootstrapper for web projects)
19008 15:26:34 INFO  d:\development\sitecoretest\website\bin\ninject.web.mvc.dll (Ninject.Web.Mvc: Ninject support for MVC3, Extension for Ninject providing integration with ASP.NET MVC3)
19008 15:26:34 INFO  d:\development\sitecoretest\website\bin\nlog.dll (NLog v4.0.1, NLog, 4.0.1)
19008 15:26:34 INFO  d:\development\sitecoretest\website\bin\nlog.web.dll (NLog.Web)
19008 15:26:34 INFO  d:\development\sitecoretest\website\bin\oauthlinkedin.dll (OAuthLinkedIn)
19008 15:26:34 INFO  d:\development\sitecoretest\website\bin\owin.dll (OWIN IAppBuilder startup interface)
19008 15:26:34 INFO  d:\development\sitecoretest\website\bin\protobuf-net.dll (protobuf-net, Protocol Buffers for .NET)
19008 15:26:34 INFO  d:\development\sitecoretest\website\bin\radeditor.net2.dll (RadEditor, Telerik RadEditor)
19008 15:26:34 INFO  d:\development\sitecoretest\website\bin\raven.abstractions.dll (RavenDB, RavenDB is a second generation LINQ enabled document database for .NET, 3.0.0 / cdc39ac / )
19008 15:26:34 INFO  d:\development\sitecoretest\website\bin\raven.client.lightweight.dll (RavenDB, RavenDB is a second generation LINQ enabled document database for .NET, 3.0.0 / cdc39ac / )
19008 15:26:34 INFO  d:\development\sitecoretest\website\bin\sitecore.abstractions.dll (Sitecore Buckets, 1.0.0 rev. 140127)
19008 15:26:34 INFO  d:\development\sitecoretest\website\bin\sitecore.analytics.aggregation.dll (Sitecore CMS, 8.0 rev. 150621)
19008 15:26:34 INFO  d:\development\sitecoretest\website\bin\sitecore.analytics.automation.aggregation.dll (Sitecore CMS, 8.0 rev. 150621)
19008 15:26:34 INFO  d:\development\sitecoretest\website\bin\sitecore.analytics.automation.dll (Sitecore EAS, Sitecore Engagement Automation Suite, 8.0 rev. 150621)
19008 15:26:34 INFO  d:\development\sitecoretest\website\bin\sitecore.analytics.automation.mongodb.dll (Sitecore CMS, 8.0 rev. 150621)
19008 15:26:34 INFO  d:\development\sitecoretest\website\bin\sitecore.analytics.core.dll (Sitecore CMS, 8.0 rev. 150621)
19008 15:26:34 INFO  d:\development\sitecoretest\website\bin\sitecore.analytics.dataaccess.dll (Sitecore CMS, 8.0 rev. 150621)
19008 15:26:34 INFO  d:\development\sitecoretest\website\bin\sitecore.analytics.dll (Sitecore DMS, Sitecore Digital Marketing System, 8.0 rev. 150621)
19008 15:26:34 INFO  d:\development\sitecoretest\website\bin\sitecore.analytics.model.dll (Sitecore CMS, 8.0 rev. 150621)
19008 15:26:34 INFO  d:\development\sitecoretest\website\bin\sitecore.analytics.mongodb.dll (Sitecore DMS, Sitecore Digital Marketing System MongoDB Connector, 8.0 rev. 150621)
19008 15:26:34 INFO  d:\development\sitecoretest\website\bin\sitecore.analytics.omnichannel.dll (Sitecore Analytics Channel Provider, 8.0 rev. 150621)
19008 15:26:34 INFO  d:\development\sitecoretest\website\bin\sitecore.analytics.outcome.dll (Sitecore.Analytics.Outcome, 8.0 rev. 150621)
19008 15:26:34 INFO  d:\development\sitecoretest\website\bin\sitecore.analytics.processing.dll (Sitecore CMS, 8.0 rev. 150621)
19008 15:26:34 INFO  d:\development\sitecoretest\website\bin\sitecore.analytics.robotdetection.dll (Sitecore Robot Detection, 1.0.0 rev. 150205)
19008 15:26:34 INFO  d:\development\sitecoretest\website\bin\sitecore.analytics.sql.dll (Sitecore CMS, 8.0 rev. 150621)
19008 15:26:34 INFO  d:\development\sitecoretest\website\bin\sitecore.apps.loader.dll (Sitecore.Apps.Loader, 1.0.0 rev. 130822)
19008 15:26:34 INFO  d:\development\sitecoretest\website\bin\sitecore.apps.taginjection.dll (Sitecore Tag Management, 1.0.0 rev. 140814)
19008 15:26:34 INFO  d:\development\sitecoretest\website\bin\sitecore.buckets.client.dll (Sitecore Buckets, The assembly can be used to have Sitecore queries driven via a query, 1.0.0 rev. 150612)
19008 15:26:34 INFO  d:\development\sitecoretest\website\bin\sitecore.buckets.dll (Sitecore Buckets, The assembly can be used to have Sitecore queries driven via search providers, 1.0.0 rev. 150612)
19008 15:26:34 INFO  d:\development\sitecoretest\website\bin\sitecore.cintel.client.dll (Sitecore Experience Profile, 1.0.0 rev. 150205)
19008 15:26:34 INFO  d:\development\sitecoretest\website\bin\sitecore.cintel.dll (Sitecore Experience Profile, 1.0.0 rev. 150205)
19008 15:26:34 INFO  d:\development\sitecoretest\website\bin\sitecore.client.dll (Sitecore CMS, Sitecore Client Application, 8.0 rev. 150621)
19008 15:26:34 INFO  d:\development\sitecoretest\website\bin\sitecore.client.licenseoptions.dll (Sitecore Speak Applications, 1.3.1 rev. 150529)
19008 15:26:34 INFO  d:\development\sitecoretest\website\bin\sitecore.cloud.contentsearch.dll (Sitecore.Cloud.ContentSearch, 8.0 rev. 150403)
19008 15:26:34 INFO  d:\development\sitecoretest\website\bin\sitecore.cloud.nexus.dll (Sitecore.Cloud.Nexus)
19008 15:26:34 INFO  d:\development\sitecoretest\website\bin\sitecore.cloud.restclient.dll (Sitecore.Cloud.RestClient)
19008 15:26:34 INFO  d:\development\sitecoretest\website\bin\sitecore.cloud.servicemodel.dll (Sitecore.Cloud.ServiceModel)
19008 15:26:34 INFO  d:\development\sitecoretest\website\bin\sitecore.cloud.xdb.dll (Sitecore.Cloud.Xdb, 8.0 rev. 150612)
19008 15:26:34 INFO  d:\development\sitecoretest\website\bin\sitecore.cloud.xdb.servicemodel.dll (Sitecore.Cloud.ScS.Xdb.Discovery.ServiceModel)
19008 15:26:34 INFO  d:\development\sitecoretest\website\bin\sitecore.contentsearch.analytics.client.dll (Sitecore Buckets, 1.0.0 rev. 150612)
19008 15:26:34 INFO  d:\development\sitecoretest\website\bin\sitecore.contentsearch.analytics.dll (Sitecore Buckets, 1.0.0 rev. 150612)
19008 15:26:34 INFO  d:\development\sitecoretest\website\bin\sitecore.contentsearch.client.dll (Sitecore Buckets, 1.0.0 rev. 150612)
19008 15:26:34 INFO  d:\development\sitecoretest\website\bin\sitecore.contentsearch.dll (Sitecore Buckets, Sitecore CMS Search, 1.0.0 rev. 150612)
19008 15:26:34 INFO  d:\development\sitecoretest\website\bin\sitecore.contentsearch.linq.dll (Sitecore Buckets, Sitecore CMS Search, 1.0.0 rev. 150612)
19008 15:26:34 INFO  d:\development\sitecoretest\website\bin\sitecore.contentsearch.linq.lucene.dll (Sitecore Buckets, 1.0.0 rev. 150612)
19008 15:26:34 INFO  d:\development\sitecoretest\website\bin\sitecore.contentsearch.luceneprovider.dll (Sitecore Buckets, Sitecore CMS Search, 1.0.0 rev. 150612)
19008 15:26:34 INFO  d:\development\sitecoretest\website\bin\sitecore.contenttesting.dll (Sitecore CMS)
19008 15:26:34 INFO  d:\development\sitecoretest\website\bin\sitecore.contenttesting.intelligence.dll (Sitecore CMS)
19008 15:26:34 INFO  d:\development\sitecoretest\website\bin\sitecore.contenttesting.mvc.dll (Sitecore CMS)
19008 15:26:34 INFO  d:\development\sitecoretest\website\bin\sitecore.controlpanel.dll (Sitecore Speak Applications, 1.3.1 rev. 150529)
19008 15:26:34 INFO  d:\development\sitecoretest\website\bin\sitecore.experienceanalytics.client.dll (Sitecore Experience Analytics, 1.0.2 rev. 150618)
19008 15:26:34 INFO  d:\development\sitecoretest\website\bin\sitecore.experienceanalytics.dll (Sitecore Experience Analytics, 1.0.2 rev. 150618)
19008 15:26:34 INFO  d:\development\sitecoretest\website\bin\sitecore.experienceeditor.dll (Sitecore Experience Editor, 1.0.0 rev. 150406)
19008 15:26:34 INFO  d:\development\sitecoretest\website\bin\sitecore.experienceeditor.speak.dll (Sitecore Experience Editor, 1.0.0 rev. 150406)
19008 15:26:34 INFO  d:\development\sitecoretest\website\bin\sitecore.experienceeditor.speak.ribbon.dll (Sitecore Experience Editor, 1.0.0 rev. 150406)
19008 15:26:34 INFO  d:\development\sitecoretest\website\bin\sitecore.experienceexplorer.business.dll (Sitecore.ExperienceExplorer.Business, 1.0.0.0 rev. 0)
19008 15:26:34 INFO  d:\development\sitecoretest\website\bin\sitecore.experienceexplorer.web.dll (Sitecore.ExperienceExplorer, The Experience Explorer is intended to seamlessly enable marketers to explorer their web-site as experienced by their primary target audiences. With a single, integrated solution, the module allows marketers to create and impersonate themselves as pre-defined arch-types and discover new capabilities of their site. With improved insights and awareness of the sites personalization and behavior, the module allows marketers to become more efficiently in maximizing the business value for their customers using the Sitecore Customer Engagement Platform, 1.0.0.0 rev. 0)
19008 15:26:34 INFO  d:\development\sitecoretest\website\bin\sitecore.fxm.client.dll (Sitecore Federated Experience Manager, 10.1 rev. 150315 )
19008 15:26:34 INFO  d:\development\sitecoretest\website\bin\sitecore.fxm.dll (Sitecore Federated Experience Manager, 10.1 rev. 150315 )
19008 15:26:34 INFO  d:\development\sitecoretest\website\bin\sitecore.fxm.service.dll (Sitecore Federated Experience Manager, 10.1 rev. 150315 )
19008 15:26:34 INFO  d:\development\sitecoretest\website\bin\sitecore.fxm.speak.dll (Sitecore Federated Experience Manager, 10.1 rev. 150315 )
19008 15:26:34 INFO  d:\development\sitecoretest\website\bin\sitecore.itemwebapi.dll (Sitecore Item Web API, 1.2.0 rev. 141016)
19008 15:26:34 INFO  d:\development\sitecoretest\website\bin\sitecore.kernel.dll (Sitecore CMS, Sitecore CMS Kernel Library, 8.0 rev. 150621)
19008 15:26:34 INFO  d:\development\sitecoretest\website\bin\sitecore.launchpad.dll (Sitecore LaunchPad, 1.0 rev. 150403)
19008 15:26:34 INFO  d:\development\sitecoretest\website\bin\sitecore.listmanagement.analytics.dll (Sitecore List Manager, 1.0.4 rev. 150603)
19008 15:26:34 INFO  d:\development\sitecoretest\website\bin\sitecore.listmanagement.client.dll (Sitecore List Manager, 1.0.4 rev. 150603)
19008 15:26:34 INFO  d:\development\sitecoretest\website\bin\sitecore.listmanagement.contentsearch.dll (Sitecore List Manager, 1.0.4 rev. 150603)
19008 15:26:34 INFO  d:\development\sitecoretest\website\bin\sitecore.listmanagement.dll (Sitecore List Manager, 1.0.4 rev. 150603)
19008 15:26:34 INFO  d:\development\sitecoretest\website\bin\sitecore.listmanagement.services.dll (Sitecore List Manager, 1.0.4 rev. 150603)
19008 15:26:34 INFO  d:\development\sitecoretest\website\bin\sitecore.logging.dll (Sitecore CMS, Sitecore Logging Framework, 6.6.0 rev. 120918)
19008 15:26:34 INFO  d:\development\sitecoretest\website\bin\sitecore.marketing.client.dll (Sitecore.Marketing.Client, 1.0.0 rev. 141201)
19008 15:26:34 INFO  d:\development\sitecoretest\website\bin\sitecore.marketing.definitions.marketingassets.repositories.dll (Sitecore Marketing Asset Repositories 1.0.0, 1.0.0 rev. 150126)
19008 15:26:34 INFO  d:\development\sitecoretest\website\bin\sitecore.marketing.dll (Sitecore.Marketing, 8.0 rev. 150621)
19008 15:26:34 INFO  d:\development\sitecoretest\website\bin\sitecore.marketing.taxonomy.dll (Sitecore.Marketing.Taxonomy, 8.0 rev. 150621)
19008 15:26:34 INFO  d:\development\sitecoretest\website\bin\sitecore.mvc.analytics.dll (Sitecore Mvc Analytics 1.0.0, 1.0.0 rev. 141017)
19008 15:26:34 INFO  d:\development\sitecoretest\website\bin\sitecore.mvc.devicesimulator.dll (Sitecore Mvc Device Simulators 1.0.0, 1.0.0 rev. 140611)
19008 15:26:34 INFO  d:\development\sitecoretest\website\bin\sitecore.mvc.dll (Sitecore Mvc 1.0.0, 1.0.0 rev. 150127)
19008 15:26:34 INFO  d:\development\sitecoretest\website\bin\sitecore.mvc.experienceeditor.dll (Sitecore Mvc Experience Editor, 1.0.0 rev. 150323)
19008 15:26:34 INFO  d:\development\sitecoretest\website\bin\sitecore.nexus.dll (Sitecore.Nexus)
19008 15:26:34 INFO  d:\development\sitecoretest\website\bin\sitecore.nvelocity.dll (Sitecore CMS, Sitecore Macro Expansion Library, 6.6.0 rev. 120918)
19008 15:26:34 INFO  d:\development\sitecoretest\website\bin\sitecore.oracle.dll (Sitecore CMS, Oracle Data Provider for Sitecore, 8.0 rev. 150621)
19008 15:26:34 INFO  d:\development\sitecoretest\website\bin\sitecore.pathanalyzer.client.dll (Sitecore.PathAnalyzer.Client)
19008 15:26:34 INFO  d:\development\sitecoretest\website\bin\sitecore.pathanalyzer.dll (Sitecore.PathAnalyzer)
19008 15:26:34 INFO  d:\development\sitecoretest\website\bin\sitecore.pathanalyzer.services.dll (Sitecore.PathAnalyzer.Services)
19008 15:26:34 INFO  d:\development\sitecoretest\website\bin\sitecore.publishing.webdeploy.dll (Sitecore CMS, Sitecore publishing infrastructure based on Web Deployment Tool, 8.0 rev. 150621)
19008 15:26:34 INFO  d:\development\sitecoretest\website\bin\sitecore.security.anticsrf.dll (Sitecore AntiCSRF Module 1.0.0, 1.0.0 rev. 141119)
19008 15:26:34 INFO  d:\development\sitecoretest\website\bin\sitecore.segmentbuilder.dll (Sitecore Segment Builder 1.0.0, 1.0.0 rev. 150204)
19008 15:26:34 INFO  d:\development\sitecoretest\website\bin\sitecore.sequenceanalyzer.dll (Sitecore.SequenceAnalyzer)
19008 15:26:34 INFO  d:\development\sitecoretest\website\bin\sitecore.services.client.dll (Sitecore Services 1.0.0, Sitecore Services, 1.0.0)
19008 15:26:34 INFO  d:\development\sitecoretest\website\bin\sitecore.services.core.dll (Sitecore Services 1.0.0, Sitecore Services, 1.0 rev. 141114)
19008 15:26:34 INFO  d:\development\sitecoretest\website\bin\sitecore.services.infrastructure.dll (Sitecore Services 1.0.0, Sitecore Services, 1.0 rev. 141114)
19008 15:26:34 INFO  d:\development\sitecoretest\website\bin\sitecore.services.infrastructure.sitecore.dll (Sitecore Services 1.0.0, Sitecore Services, 1.0 rev. 141114)
19008 15:26:34 INFO  d:\development\sitecoretest\website\bin\sitecore.sessionprovider.dll (Sitecore CMS, 8.0 rev. 150621)
19008 15:26:34 INFO  d:\development\sitecoretest\website\bin\sitecore.sessionprovider.memory.dll (Sitecore CMS, 8.0 rev. 150621)
19008 15:26:34 INFO  d:\development\sitecoretest\website\bin\sitecore.sessionprovider.mongodb.dll (Sitecore CMS, 8.0 rev. 150621)
19008 15:26:34 INFO  d:\development\sitecoretest\website\bin\sitecore.sessionprovider.sql.dll (Sitecore CMS, 8.0 rev. 150621)
19008 15:26:34 INFO  d:\development\sitecoretest\website\bin\sitecore.shell.marketingautomation.dll (Sitecore Engagement Automation Suite 1.0.0, 1.0.0 rev. 150217)
19008 15:26:34 INFO  d:\development\sitecoretest\website\bin\sitecore.social.api.dll (Social Connected Module, 8.0 rev. 150528)
19008 15:26:34 INFO  d:\development\sitecoretest\website\bin\sitecore.social.client.api.dll (Social Connected Module, 8.0 rev. 150528)
19008 15:26:34 INFO  d:\development\sitecoretest\website\bin\sitecore.social.client.common.dll (Social Connected Module, 8.0 rev. 150528)
19008 15:26:34 INFO  d:\development\sitecoretest\website\bin\sitecore.social.client.dll (Social Connected Module, 8.0 rev. 150528)
19008 15:26:34 INFO  d:\development\sitecoretest\website\bin\sitecore.social.client.domain.dll (Social Connected Module, 8.0 rev. 150528)
19008 15:26:34 INFO  d:\development\sitecoretest\website\bin\sitecore.social.client.mvc.dll (Social Connected Module, 8.0 rev. 150528)
19008 15:26:34 INFO  d:\development\sitecoretest\website\bin\sitecore.social.client.speak.dll (Social Connected Module, 8.0 rev. 150528)
19008 15:26:34 INFO  d:\development\sitecoretest\website\bin\sitecore.social.configuration.dll (Social Connected Module, 8.0 rev. 150528)
19008 15:26:34 INFO  d:\development\sitecoretest\website\bin\sitecore.social.dll (Social Connected Module, 8.0 rev. 150528)
19008 15:26:34 INFO  d:\development\sitecoretest\website\bin\sitecore.social.domain.dll (Social Connected Module, 8.0 rev. 150528)
19008 15:26:34 INFO  d:\development\sitecoretest\website\bin\sitecore.social.experienceprofile.client.dll (Social Connected Module, 8.0 rev. 150528)
19008 15:26:34 INFO  d:\development\sitecoretest\website\bin\sitecore.social.facebook.api.dll (Social Connected Module, 8.0 rev. 150528)
19008 15:26:34 INFO  d:\development\sitecoretest\website\bin\sitecore.social.facebook.client.dll (Social Connected Module, 8.0 rev. 150528)
19008 15:26:34 INFO  d:\development\sitecoretest\website\bin\sitecore.social.facebook.client.mvc.dll (Social Connected Module, 8.0 rev. 150528)
19008 15:26:34 INFO  d:\development\sitecoretest\website\bin\sitecore.social.facebook.dll (Social Connected Module, 8.0 rev. 150528)
19008 15:26:34 INFO  d:\development\sitecoretest\website\bin\sitecore.social.googleplus.client.dll (Social Connected Module, 8.0 rev. 150528)
19008 15:26:34 INFO  d:\development\sitecoretest\website\bin\sitecore.social.googleplus.client.mvc.dll (Social Connected Module, 8.0 rev. 150528)
19008 15:26:34 INFO  d:\development\sitecoretest\website\bin\sitecore.social.googleplus.dll (Social Connected Module, 8.0 rev. 150528)
19008 15:26:34 INFO  d:\development\sitecoretest\website\bin\sitecore.social.infrastructure.dll (Social Connected Module, 8.0 rev. 150528)
19008 15:26:34 INFO  d:\development\sitecoretest\website\bin\sitecore.social.infrastructure.logging.dll (Social Connected Module, 8.0 rev. 150528)
19008 15:26:34 INFO  d:\development\sitecoretest\website\bin\sitecore.social.installation.dll (Social Connected Module, 8.0 rev. 150528)
19008 15:26:34 INFO  d:\development\sitecoretest\website\bin\sitecore.social.klout.api.dll (Social Connected Module, 8.0 rev. 150528)
19008 15:26:34 INFO  d:\development\sitecoretest\website\bin\sitecore.social.klout.client.dll (Social Connected Module, 8.0 rev. 150528)
19008 15:26:34 INFO  d:\development\sitecoretest\website\bin\sitecore.social.linkedin.client.dll (Social Connected Module, 8.0 rev. 150528)
19008 15:26:34 INFO  d:\development\sitecoretest\website\bin\sitecore.social.linkedin.client.mvc.dll (Social Connected Module, 8.0 rev. 150528)
19008 15:26:34 INFO  d:\development\sitecoretest\website\bin\sitecore.social.linkedin.dll (Social Connected Module, 8.0 rev. 150528)
19008 15:26:34 INFO  d:\development\sitecoretest\website\bin\sitecore.social.networkproviders.dll (Social Connected Module, 8.0 rev. 150528)
19008 15:26:34 INFO  d:\development\sitecoretest\website\bin\sitecore.social.sitecoreaccess.dll (Social Connected Module, 8.0 rev. 150528)
19008 15:26:34 INFO  d:\development\sitecoretest\website\bin\sitecore.social.socialmarketer.api.dll (Social Connected Module, 8.0 rev. 150528)
19008 15:26:34 INFO  d:\development\sitecoretest\website\bin\sitecore.social.socialmarketer.client.dll (Social Connected Module, 8.0 rev. 150528)
19008 15:26:34 INFO  d:\development\sitecoretest\website\bin\sitecore.social.socialmarketer.dll (Social Connected Module, 8.0 rev. 150528)
19008 15:26:34 INFO  d:\development\sitecoretest\website\bin\sitecore.social.twitter.api.dll (Social Connected Module, 8.0 rev. 150528)
19008 15:26:34 INFO  d:\development\sitecoretest\website\bin\sitecore.social.twitter.client.dll (Social Connected Module, 8.0 rev. 150528)
19008 15:26:34 INFO  d:\development\sitecoretest\website\bin\sitecore.social.twitter.client.mvc.dll (Social Connected Module, 8.0 rev. 150528)
19008 15:26:34 INFO  d:\development\sitecoretest\website\bin\sitecore.social.twitter.dll (Social Connected Module, 8.0 rev. 150528)
19008 15:26:34 INFO  d:\development\sitecoretest\website\bin\sitecore.speak.applications.dll (Sitecore Speak Applications, 1.3.1 rev. 150529)
19008 15:26:34 INFO  d:\development\sitecoretest\website\bin\sitecore.speak.charting.dll (Sitecore Speak Charting, 1.1.0 rev. 141203)
19008 15:26:34 INFO  d:\development\sitecoretest\website\bin\sitecore.speak.client.dll (Sitecore Speak Demo, 1.3.4 rev. 150520)
19008 15:26:34 INFO  d:\development\sitecoretest\website\bin\sitecore.speak.itemwebapi.dll (Sitecore Speak Demo, 1.3.4 rev. 150520)
19008 15:26:34 INFO  d:\development\sitecoretest\website\bin\sitecore.speak.mvc.dll (Sitecore Speak Demo, 1.3.4 rev. 150520)
19008 15:26:34 INFO  d:\development\sitecoretest\website\bin\sitecore.speak.web.dll (Sitecore Speak Demo, 1.3.4 rev. 150520)
19008 15:26:34 INFO  d:\development\sitecoretest\website\bin\sitecore.update.dll (Sitecore Update Installation Wizard, 1.0.0 rev. 150619)
19008 15:26:34 INFO  d:\development\sitecoretest\website\bin\sitecore.web.dll (Sitecore.Web 1.0.0, 1.0.0 rev. 141110)
19008 15:26:34 INFO  d:\development\sitecoretest\website\bin\sitecore.zip.dll (Sitecore CMS, ZIP support for Sitecore, 7.0.0)
19008 15:26:34 INFO  d:\development\sitecoretest\website\bin\stimulsoft.base.dll (Stimulsoft Reports, Stimulsoft Base)
19008 15:26:34 INFO  d:\development\sitecoretest\website\bin\stimulsoft.database.dll (Stimulsoft Reports, Stimulsoft Reports Database Helper)
19008 15:26:34 INFO  d:\development\sitecoretest\website\bin\stimulsoft.report.dll (Stimulsoft Reports, Stimulsoft Reports Engine)
19008 15:26:34 INFO  d:\development\sitecoretest\website\bin\stimulsoft.report.web.dll (Stimulsoft Reports.Web, Stimulsoft Reports.Web Viewer)
19008 15:26:34 INFO  d:\development\sitecoretest\website\bin\stimulsoft.report.webdesign.dll (Stimulsoft Reports Designer.Web, Stimulsoft Reports Designer.Web)
19008 15:26:34 INFO  d:\development\sitecoretest\website\bin\system.identitymodel.tokens.jwt.dll (System.IdentityModel.Tokens.Jwt, .Net 4.5 support for JSON Web Security Tokens, 20622.1351.a95e76cc46fe08b6d46b5fbe2405d27269475a1a)
19008 15:26:34 INFO  d:\development\sitecoretest\website\bin\system.net.http.dll (Microsoft® .NET Framework, System.Net.Http.dll, 4.6.81.0)
19008 15:26:34 INFO  d:\development\sitecoretest\website\bin\system.net.http.formatting.dll (Microsoft ASP.NET MVC, 5.1.1-20129 (54866f0d3262d0fccfc2cb463f003459fcabd6c8))
19008 15:26:34 INFO  d:\development\sitecoretest\website\bin\system.net.http.webrequest.dll (Microsoft® .NET Framework, System.Net.Http.WebRequest.dll, 4.0.30319.33440)
19008 15:26:34 INFO  d:\development\sitecoretest\website\bin\system.web.cors.dll (Microsoft ASP.NET MVC, 5.1.0-20110)
19008 15:26:34 INFO  d:\development\sitecoretest\website\bin\system.web.helpers.dll (Microsoft ASP.NET Web Pages, 3.0.3-30128 (0e974218e12a67d4b1f25422119e40cfe6953e46))
19008 15:26:34 INFO  d:\development\sitecoretest\website\bin\system.web.http.cors.dll (Microsoft ASP.NET MVC, 5.1.0-20110)
19008 15:26:34 INFO  d:\development\sitecoretest\website\bin\system.web.http.dll (Microsoft ASP.NET MVC, 5.1.1-20129 (54866f0d3262d0fccfc2cb463f003459fcabd6c8))
19008 15:26:34 INFO  d:\development\sitecoretest\website\bin\system.web.http.webhost.dll (Microsoft ASP.NET MVC, 5.1.1-20129 (54866f0d3262d0fccfc2cb463f003459fcabd6c8))
19008 15:26:34 INFO  d:\development\sitecoretest\website\bin\system.web.mvc.dll (Microsoft ASP.NET MVC, System.Web.Mvc.dll, 5.2.3-30128 (0e974218e12a67d4b1f25422119e40cfe6953e46))
19008 15:26:34 INFO  d:\development\sitecoretest\website\bin\system.web.optimization.dll (System.Web.Optimization)
19008 15:26:34 INFO  d:\development\sitecoretest\website\bin\system.web.optimization.less.dll (System.Web.Optimization.Less)
19008 15:26:34 INFO  d:\development\sitecoretest\website\bin\system.web.razor.dll (Microsoft ASP.NET Web Pages, 3.0.3-30128 (0e974218e12a67d4b1f25422119e40cfe6953e46))
19008 15:26:34 INFO  d:\development\sitecoretest\website\bin\system.web.webpages.deployment.dll (Microsoft ASP.NET Web Pages, 3.0.3-30128 (0e974218e12a67d4b1f25422119e40cfe6953e46))
19008 15:26:34 INFO  d:\development\sitecoretest\website\bin\system.web.webpages.dll (Microsoft ASP.NET Web Pages, 3.0.3-30128 (0e974218e12a67d4b1f25422119e40cfe6953e46))
19008 15:26:34 INFO  d:\development\sitecoretest\website\bin\system.web.webpages.razor.dll (Microsoft ASP.NET Web Pages, 3.0.3-30128 (0e974218e12a67d4b1f25422119e40cfe6953e46))
19008 15:26:34 INFO  d:\development\sitecoretest\website\bin\telerik.web.ui.dll (Telerik.Web.UI, Telerik RadControls for ASP.NET Ajax)
19008 15:26:34 INFO  d:\development\sitecoretest\website\bin\telerik.web.ui.skins.dll (Telerik RadControls for ASP.NET Ajax Skins)
19008 15:26:34 INFO  d:\development\sitecoretest\website\bin\tweetsharp.dll (TweetSharp)
19008 15:26:34 INFO  d:\development\sitecoretest\website\bin\webactivatorex.dll (WebActivator, A package that allows other packages to execute some startup code in web apps. This package should be used over the older WebActivator, which was not strong named)
19008 15:26:34 INFO  d:\development\sitecoretest\website\bin\webgrease.dll (WebGrease)
19008 15:26:34 INFO  d:\development\sitecoretest\website\bin\yahoo.yui.compressor.dll (YUI Compressor, A .NET port of the Yahoo! YUI Compressor project)
19008 15:26:34 INFO  
19008 15:26:34 INFO  Operating system Microsoft Windows NT 6.2.9200.0
19008 15:26:34 INFO  
19008 15:26:34 INFO  Microsoft.NET version 4.0.30319.42000
19008 15:26:34 INFO  
19008 15:26:34 INFO  UTC offset: 10:00:00
19008 15:26:34 INFO  Machine name: A00078
19008 15:26:34 INFO  App pool ID: Clr4IntegratedAppPool
19008 15:26:34 INFO  
19008 15:26:34 INFO  Process ID: 19640
19008 15:26:34 INFO  Windows identity used by the process: TSW\Andy.Hsu. Impersonation: False
19008 15:26:34 INFO  Managed pipeline mode: Integrated
19008 15:26:34 INFO  
19008 15:26:34 INFO  EventQueues enabled: True
19008 15:26:34 INFO  Instance Name:A00078-LaunchSitecoreMvc(1)
19008 15:26:34 INFO  
19008 15:26:34 INFO  Threshold settings
19008 15:26:34 INFO    Show threshold warnings: False
19008 15:26:34 INFO  
19008 15:26:34 INFO  Databases
19008 15:26:34 INFO    core
19008 15:26:34 INFO    master
19008 15:26:34 INFO    web
19008 15:26:34 INFO    filesystem
19008 15:26:34 INFO  
19008 15:26:34 INFO  Domains
19008 15:26:34 INFO  Heartbeat - Initializing
19008 15:26:34 INFO  Heartbeat - Interval set to: 00:00:02
19008 15:26:34 INFO  Heartbeat - Worker thread started
19008 15:26:34 INFO  Trying to load XML configuration /App_Config/Security/Domains.config
19008 15:26:34 INFO    sitecore
19008 15:26:34 INFO    extranet
19008 15:26:34 INFO    default
19008 15:26:34 INFO  
19008 15:26:34 WARN  Note that asp.net debugging is enabled. This can decrease performance considerably.
19008 15:26:34 INFO  
19008 15:26:34 INFO  **********************************************************************
19008 15:26:34 INFO  **********************************************************************
19008 15:26:34 INFO  Attempting to get ASP.NET process history
19008 15:26:34 WARN  No process history available
19008 15:26:34 INFO  Cache created: 'LanguageProvider - Languages' (max size: 100KB, running total: 100KB)
19008 15:26:34 INFO  Cache created: 'DeviceItemsCache' (max size: 50MB, running total: 50MB)
19008 15:26:34 INFO  Cache created: 'core[data]' (max size: 100MB, running total: 150MB)
19008 15:26:34 INFO  Cache created: 'core[items]' (max size: 50MB, running total: 200MB)
19008 15:26:34 INFO  Cache created: 'core[paths]' (max size: 2MB, running total: 202MB)
19008 15:26:34 INFO  Cache created: 'core[standardValues]' (max size: 2MB, running total: 204MB)
19008 15:26:34 INFO  Cache created: 'core[itempaths]' (max size: 50MB, running total: 254MB)
19008 15:26:34 INFO  Cache created: 'core[blobIDs]' (max size: 500KB, running total: 255MB)
19008 15:26:34 INFO  Cache created: 'master[data]' (max size: 100MB, running total: 355MB)
19008 15:26:34 INFO  Cache created: 'master[items]' (max size: 50MB, running total: 405MB)
19008 15:26:34 INFO  Cache created: 'master[paths]' (max size: 2MB, running total: 407MB)
19008 15:26:34 INFO  Cache created: 'master[standardValues]' (max size: 2MB, running total: 410MB)
19008 15:26:34 INFO  Cache created: 'master[itempaths]' (max size: 50MB, running total: 460MB)
19008 15:26:34 INFO  Cache created: 'master[blobIDs]' (max size: 500KB, running total: 460MB)
19008 15:26:34 INFO  Cache created: 'web[data]' (max size: 100MB, running total: 560MB)
19008 15:26:34 INFO  Cache created: 'web[items]' (max size: 50MB, running total: 610MB)
19008 15:26:34 INFO  Cache created: 'web[paths]' (max size: 2MB, running total: 613MB)
19008 15:26:34 INFO  Cache created: 'web[standardValues]' (max size: 2MB, running total: 615MB)
19008 15:26:34 INFO  Cache created: 'web[itempaths]' (max size: 50MB, running total: 665MB)
19008 15:26:34 INFO  Cache created: 'web[blobIDs]' (max size: 500KB, running total: 666MB)
19008 15:26:34 INFO  Cache created: 'filesystem[data]' (max size: 0 bytes, running total: 666MB)
19008 15:26:34 INFO  Cache created: 'filesystem[items]' (max size: 0 bytes, running total: 666MB)
19008 15:26:34 INFO  Cache created: 'filesystem[paths]' (max size: 0 bytes, running total: 666MB)
19008 15:26:34 INFO  Cache created: 'filesystem[standardValues]' (max size: 0 bytes, running total: 666MB)
19008 15:26:34 INFO  Cache created: 'filesystem[itempaths]' (max size: 50MB, running total: 716MB)
19008 15:26:34 INFO  Cache created: 'filesystem[blobIDs]' (max size: 500KB, running total: 716MB)
ManagedPoolThread #14 15:26:36 INFO  Trying to load XML configuration /App_Config/Security/Domains.config
Heartbeat 15:26:38 INFO  Cache created: 'SqlDataProvider - Property data(core)' (max size: 500KB, running total: 717MB)
Heartbeat 15:26:38 INFO  Cache created: 'SqlDataProvider - Property data(master)' (max size: 500KB, running total: 717MB)
Heartbeat 15:26:39 INFO  Cache created: 'SqlDataProvider - Property data(web)' (max size: 500KB, running total: 718MB)
19008 15:26:56 INFO  Cache created: 'SqlDataProvider - Prefetch data(core)' (max size: 50MB, running total: 768MB)
19008 15:26:56 INFO  Cache created: 'ItemCloningRelations' (max size: 50MB, running total: 818MB)
19008 15:26:56 INFO  Cache created: 'AccessResultCache' (max size: 10MB, running total: 828MB)
19008 15:26:56 INFO  Cache created: 'ProxyProvider' (max size: 500KB, running total: 828MB)
19008 15:26:56 INFO  Loading Dictionary from cache
19008 15:26:56 INFO  MemoryMonitor initialized. Threshold: 2 GB. Interval: 00:00:05
19008 15:26:56 INFO  [Analytics]: Started background service for 'maintenanceService'.
19008 15:26:56 INFO  Cache created: 'taxonomy.campaigngroups' (max size: 20MB, running total: 848MB)
19008 15:26:56 INFO  Cache created: 'taxonomy.channels' (max size: 20MB, running total: 868MB)
19008 15:26:56 INFO  Cache created: 'taxonomy.assets' (max size: 20MB, running total: 888MB)
19008 15:26:56 INFO  [Analytics]: Started background service for 'aggregation/aggregator'.
19008 15:26:56 INFO  [Analytics]: Started background service for 'aggregation/contactProcessing'.
19008 15:26:56 INFO  [Analytics]: Started background service for 'aggregation/cleanup'.
19008 15:26:56 INFO  [Analytics]: Started background service for 'aggregation/recovery'.
19008 15:26:56 INFO  [Analytics]: Started background service for 'aggregation/rebuildAgent'.
19008 15:26:56 INFO  [Analytics]: Started background service for 'aggregation/historyWorker'.
19008 15:26:56 INFO  [Analytics]: Started background service for 'aggregation/historyCompletionCheck'.
19008 15:26:57 INFO  [Analytics]: Started background service for 'aggregation/automationAggregator'.
19008 15:26:57 INFO  [Analytics]: Started background service for 'aggregation/automationRangeManager'.
19008 15:26:57 INFO  [Analytics]: Started background service for 'aggregation/automationCleanupService'.
19008 15:26:57 INFO  [Analytics]: Automation aggregation SubsystemLoader hook initialized.
19008 15:26:57 INFO  [Analytics]: Started background service for 'processing/taskAgent'.
19008 15:26:57 INFO  Cache created: 'rules' (max size: 800KB, running total: 889MB)
19008 15:26:57 INFO  Cache created: '[FieldReaderCache]' (max size: 5MB, running total: 894MB)
19008 15:26:57 INFO  [Analytics]: Started background service for 'pathAnalyzer/newMapAgent'.
19008 15:26:57 INFO  [Analytics]: Started background service for 'pathAnalyzer/dailyMapAgent'.
19008 15:26:57 INFO  [Analytics]: Started background service for 'pathAnalyzer/smartMergeAgent'.
19008 15:26:57 INFO  [Path Analyzer]() Path Analyzer subsystem hook initialized.
19008 15:26:57 INFO  [Analytics]: Started background service for 'experienceAnalytics/reduce/agent'.
19008 15:26:57 INFO  [Experience Analytics]: ExperienceAnalytics reduce subsystem initialized.
19008 15:26:57 INFO  Scheduler - Initializing
19008 15:26:57 INFO  Cache created: 'UserProfileCache' (max size: 5MB, running total: 899MB)
19008 15:26:57 INFO  Cache created: 'clientData' (max size: 25MB, running total: 924MB)
19008 15:26:57 INFO  Scheduler - Interval set to: 00:00:05
19008 15:26:57 INFO  Scheduler - Worker thread started
19008 15:26:57 INFO  Sitecore.Analytics.Automation.Diagnostics.PerformanceCounters are initialized
19008 15:26:57 INFO  Sitecore.Analytics.Diagnostics.PerformanceCounters are initialized
19008 15:26:57 INFO  DumpConfigurationFiles: Started
14212 15:26:57 INFO  DumpConfigurationFiles: Dump folder is D:\Development\SitecoreTest\Data\\diagnostics\configuration_history\20150820Z.052657Z
14212 15:26:57 INFO  DumpConfigurationFiles: D:\Development\SitecoreTest\Website\App_Config has been dumped
14212 15:26:57 INFO  DumpConfigurationFiles: D:\Development\SitecoreTest\Website\Web.config has been dumped
14212 15:26:57 INFO  DumpConfigurationFiles: D:\Development\SitecoreTest\Website\Global.asax has been dumped
14212 15:26:57 INFO  DumpConfigurationFiles: D:\Development\SitecoreTest\Website\sitecore\shell\sitecore.version.xml has been dumped
14212 15:26:57 INFO  DumpConfigurationFiles: Zipping of the dumped configuration files is enabled
19008 15:26:58 INFO  Sitecore.Social: The Social MVC area is registered.
14212 15:26:58 INFO  DumpConfigurationFiles: D:\Development\SitecoreTest\Data\\diagnostics\configuration_history\20150820Z.052657Z.zip has been created
ManagedPoolThread #17 15:26:58 ERROR Unable to connect to server localhost:27017: Object reference not set to an instance of an object..
14212 15:26:58 INFO  DumpConfigurationFiles: D:\Development\SitecoreTest\Data\\diagnostics\configuration_history\20150820Z.052657Z has been removed
14212 15:26:58 INFO  DumpConfigurationFiles: Completed
ManagedPoolThread #7 15:26:59 ERROR Unable to connect to server localhost:27017: No connection could be made because the target machine actively refused it 127.0.0.1:27017.
19008 15:27:00 INFO  Filter (Sitecore.Services.Infrastructure.Web.Http.Filters.AnonymousUserFilter) instance created
19008 15:27:00 INFO  Filter (Sitecore.Services.Infrastructure.Web.Http.Filters.LoggingExceptionFilter) instance created
19008 15:27:00 INFO  Filter (Sitecore.Services.Infrastructure.Web.Http.Filters.SecurityPolicyAuthorisationFilter) instance created
19008 15:27:00 INFO  [Path Analyzer]() ApplicationContainer.Init
19008 15:27:00 INFO  [Path Analyzer](RegisterType) Registering Sitecore.PathAnalyzer.Contracts.ISourceDataReader type with ApplicationContainer
19008 15:27:00 INFO  [Path Analyzer](RegisterType) Registering Sitecore.SequenceAnalyzer.Data.ITreeStorage type with ApplicationContainer
19008 15:27:00 INFO  [Path Analyzer](RegisterType) Registering Sitecore.PathAnalyzer.Data.Storage.ITreeDefinitionStorage type with ApplicationContainer
19008 15:27:00 INFO  [Path Analyzer](RegisterType) Registering Sitecore.PathAnalyzer.Contracts.ITreeDefinitionService type with ApplicationContainer
19008 15:27:00 INFO  [Path Analyzer](RegisterType) Registering Sitecore.PathAnalyzer.Contracts.IMapRepository type with ApplicationContainer
19008 15:27:00 INFO  [Path Analyzer](RegisterType) Registering Sitecore.PathAnalyzer.Contracts.IConfiguration type with ApplicationContainer
19008 15:27:00 INFO  [Path Analyzer](RegisterType) Registering Sitecore.SequenceAnalyzer.Configuration.IPruningConfig type with ApplicationContainer
19008 15:27:00 INFO  [Path Analyzer](RegisterType) Registering Sitecore.PathAnalyzer.Contracts.IContactReader type with ApplicationContainer
19008 15:27:00 INFO  [Path Analyzer](RegisterType) Registering Sitecore.PathAnalyzer.Contracts.IWebRequestFactory type with ApplicationContainer
19008 15:27:00 WARN  [Path Analyzer](RegisterType) Registering Sitecore.PathAnalyzer.Contracts.IWebRequestFactory type with ApplicationContainer failed, Config entry pathAnalyzer/webRequestFactory doesn't exist
19008 15:27:00 INFO  [Path Analyzer](RegisterModelsForSerialization) Setting serialization info
19008 15:27:00 INFO  [Path Analyzer](RegisterModelsForSerialization) Type 'Sitecore.PathAnalyzer.Data.Models.PageNode, Sitecore.PathAnalyzer' was registered succesfully.
19008 15:27:00 INFO  [Path Analyzer](RegisterModelsForSerialization) Type 'Sitecore.PathAnalyzer.Data.Models.PageTree, Sitecore.PathAnalyzer' was registered succesfully.
19008 15:27:00 INFO  [Experience Analytics]: ExperienceAnalytics SegmentInitializer
19008 15:27:00 INFO  Cache created: 'ReportDataCache' (max size: 50MB, running total: 974MB)
11632 15:27:00 INFO  Precompiling SPEAK Views: 93
11632 15:27:00 INFO  Precompiling SPEAK View: ~\sitecore\shell\client\Business Component Library\Layouts\Renderings\Authentications\AccountInformation\AccountInformation.cshtml
17932 15:27:00 INFO  Precompiling SPEAK Views: 60
17932 15:27:00 INFO  Precompiling SPEAK View: ~\sitecore\shell\client\Applications\ContentTesting\Components\Behaviours\StateChangeListBehavior.cshtml
11632 15:27:00 INFO  Precompiling SPEAK View: ~\sitecore\shell\client\Business Component Library\Layouts\Renderings\Behaviors\Behavior.cshtml
17932 15:27:00 INFO  Precompiling SPEAK View: ~\sitecore\shell\client\Applications\ContentTesting\Components\ButtonGroup\ButtonGroup.cshtml
11632 15:27:00 INFO  Precompiling SPEAK View: ~\sitecore\shell\client\Business Component Library\Layouts\Renderings\Charts\FusionChartsAreaChart.cshtml
11632 15:27:00 INFO  Precompiling SPEAK View: ~\sitecore\shell\client\Business Component Library\Layouts\Renderings\Charts\FusionChartsBarChart.cshtml
17932 15:27:00 INFO  Precompiling SPEAK View: ~\sitecore\shell\client\Applications\ContentTesting\Components\CarouselImage\CarouselImage.cshtml
11632 15:27:00 INFO  Precompiling SPEAK View: ~\sitecore\shell\client\Business Component Library\Layouts\Renderings\Charts\FusionChartsColumnChart.cshtml
11632 15:27:00 INFO  Precompiling SPEAK View: ~\sitecore\shell\client\Business Component Library\Layouts\Renderings\Charts\FusionChartsDoughnutChart.cshtml
11632 15:27:00 INFO  Precompiling SPEAK View: ~\sitecore\shell\client\Business Component Library\Layouts\Renderings\Charts\FusionChartsJourneyChart.cshtml
11632 15:27:00 INFO  Precompiling SPEAK View: ~\sitecore\shell\client\Business Component Library\Layouts\Renderings\Charts\FusionChartsLineChart.cshtml
17932 15:27:00 INFO  Precompiling SPEAK View: ~\sitecore\shell\client\Applications\ContentTesting\Components\CompareImage\CompareImage.cshtml
17932 15:27:00 INFO  Precompiling SPEAK View: ~\sitecore\shell\client\Applications\ContentTesting\Components\DataRepeater\ContentTestingDataRepeater.cshtml
11632 15:27:00 INFO  Precompiling SPEAK View: ~\sitecore\shell\client\Business Component Library\Layouts\Renderings\Charts\FusionChartsPieChart.cshtml
11632 15:27:00 INFO  Precompiling SPEAK View: ~\sitecore\shell\client\Business Component Library\Layouts\Renderings\Charts\FusionChartsRadarChart.cshtml
11632 15:27:00 INFO  Precompiling SPEAK View: ~\sitecore\shell\client\Business Component Library\Layouts\Renderings\Common\ActionControl\ActionControl.cshtml
17932 15:27:00 INFO  Precompiling SPEAK View: ~\sitecore\shell\client\Applications\ContentTesting\Components\DataSource\ActivityDataSource\ActivityDataSource.cshtml
19008 15:27:00 INFO  [Experience Analytics]: WebApiInitializer
19008 15:27:00 INFO  [Experience Analytics]: Filter (Sitecore.ExperienceAnalytics.Api.Http.Filters.CacheHeaderFilterAttribute) added
11632 15:27:00 INFO  Precompiling SPEAK View: ~\sitecore\shell\client\Business Component Library\Layouts\Renderings\Common\Buttons\BackButton.cshtml
17932 15:27:00 INFO  Precompiling SPEAK View: ~\sitecore\shell\client\Applications\ContentTesting\Components\DataSource\BaseDataSource\OptimizationBaseDataSource.cshtml
19008 15:27:00 INFO  Sitecore.Social: The Social remote events are initialized.
17932 15:27:00 INFO  Precompiling SPEAK View: ~\sitecore\shell\client\Applications\ContentTesting\Components\DataSource\BaseDataSource\OptimizationEntriesBaseDataSource.cshtml
11632 15:27:00 INFO  Precompiling SPEAK View: ~\sitecore\shell\client\Business Component Library\Layouts\Renderings\Common\Buttons\Button.cshtml
11632 15:27:00 INFO  Precompiling SPEAK View: ~\sitecore\shell\client\Business Component Library\Layouts\Renderings\Common\Buttons\DropDownButton.cshtml
11632 15:27:00 INFO  Precompiling SPEAK View: ~\sitecore\shell\client\Business Component Library\Layouts\Renderings\Common\Buttons\ToggleButton.cshtml
17932 15:27:00 INFO  Precompiling SPEAK View: ~\sitecore\shell\client\Applications\ContentTesting\Components\DataSource\BestGuessDataSource\BestGuessingDataSource.cshtml
17932 15:27:00 INFO  Precompiling SPEAK View: ~\sitecore\shell\client\Applications\ContentTesting\Components\DataSource\ConversionRateDataSource\ConversionRateDataSource.cshtml
17932 15:27:00 INFO  Precompiling SPEAK View: ~\sitecore\shell\client\Applications\ContentTesting\Components\DataSource\DurationDataSource\DurationDataSource.cshtml
11632 15:27:00 INFO  Precompiling SPEAK View: ~\sitecore\shell\client\Business Component Library\Layouts\Renderings\Common\CheckBoxes\CheckBox.cshtml
11632 15:27:00 INFO  Precompiling SPEAK View: ~\sitecore\shell\client\Business Component Library\Layouts\Renderings\Common\ComboBoxes\AdvancedComboBox.cshtml
17932 15:27:00 INFO  Precompiling SPEAK View: ~\sitecore\shell\client\Applications\ContentTesting\Components\DataSource\ExpectedChangeSliderDataSource\ExpectedChangeSliderDataSource.cshtml
11632 15:27:00 INFO  Precompiling SPEAK View: ~\sitecore\shell\client\Business Component Library\Layouts\Renderings\Common\ComboBoxes\ComboBox.cshtml
11632 15:27:00 INFO  Precompiling SPEAK View: ~\sitecore\shell\client\Business Component Library\Layouts\Renderings\Common\ContextSwitcher\ContextSwitcher.cshtml
ManagedPoolThread #8 15:27:00 ERROR Unable to connect to server localhost:27017: No connection could be made because the target machine actively refused it 127.0.0.1:27017.
11632 15:27:00 INFO  Precompiling SPEAK View: ~\sitecore\shell\client\Business Component Library\Layouts\Renderings\Common\ControlRenderers\ControlRenderer.cshtml
17932 15:27:00 INFO  Precompiling SPEAK View: ~\sitecore\shell\client\Applications\ContentTesting\Components\DataSource\ExperienceEngagementDataSource\ExperienceEngagementDataSource.cshtml
17932 15:27:00 INFO  Precompiling SPEAK View: ~\sitecore\shell\client\Applications\ContentTesting\Components\DataSource\ExperienceKPIDataSource\ExperienceKPIDataSource.cshtml
11632 15:27:00 INFO  Precompiling SPEAK View: ~\sitecore\shell\client\Business Component Library\Layouts\Renderings\Common\DatePickers\DatePicker.cshtml
11632 15:27:00 INFO  Precompiling SPEAK View: ~\sitecore\shell\client\Business Component Library\Layouts\Renderings\Common\GlobalLogos\GlobalLogo.cshtml
17932 15:27:00 INFO  Precompiling SPEAK View: ~\sitecore\shell\client\Applications\ContentTesting\Components\DataSource\HighestEffectDataSource\HighestEffectDataSource.cshtml
17932 15:27:00 INFO  Precompiling SPEAK View: ~\sitecore\shell\client\Applications\ContentTesting\Components\DataSource\ItemFromQueryString\ItemFromQueryString.cshtml
11632 15:27:00 INFO  Precompiling SPEAK View: ~\sitecore\shell\client\Business Component Library\Layouts\Renderings\Common\HyperlinkButtons\HyperlinkButton.cshtml
11632 15:27:00 INFO  Precompiling SPEAK View: ~\sitecore\shell\client\Business Component Library\Layouts\Renderings\Common\HyperlinkButtons\IconHyperlinkButton.cshtml
17932 15:27:00 INFO  Precompiling SPEAK View: ~\sitecore\shell\client\Applications\ContentTesting\Components\DataSource\ItemInfoDataSource\ItemInfoDataSource.cshtml
11632 15:27:00 INFO  Precompiling SPEAK View: ~\sitecore\shell\client\Business Component Library\Layouts\Renderings\Common\IconButtons\IconButton.cshtml
11632 15:27:00 INFO  Precompiling SPEAK View: ~\sitecore\shell\client\Business Component Library\Layouts\Renderings\Common\Images\Image.cshtml
17932 15:27:00 INFO  Precompiling SPEAK View: ~\sitecore\shell\client\Applications\ContentTesting\Components\DataSource\KPIDataSource\KPIDataSource.cshtml
17932 15:27:00 INFO  Precompiling SPEAK View: ~\sitecore\shell\client\Applications\ContentTesting\Components\DataSource\MostActiveUserDataSource\MostActiveUserDataSource.cshtml
11632 15:27:00 INFO  Precompiling SPEAK View: ~\sitecore\shell\client\Business Component Library\Layouts\Renderings\Common\Labels\Label.cshtml
11632 15:27:00 INFO  Precompiling SPEAK View: ~\sitecore\shell\client\Business Component Library\Layouts\Renderings\Common\ListBoxes\ListBox.cshtml
17932 15:27:00 INFO  Precompiling SPEAK View: ~\sitecore\shell\client\Applications\ContentTesting\Components\DataSource\OverallPerformanceDataSource\OverallPerformanceDataSource.cshtml
17932 15:27:00 INFO  Precompiling SPEAK View: ~\sitecore\shell\client\Applications\ContentTesting\Components\DataSource\PersonalizationRuleDataSource\PersonalizationRuleDataSource.cshtml
11632 15:27:00 INFO  Precompiling SPEAK View: ~\sitecore\shell\client\Business Component Library\Layouts\Renderings\Common\MessageBars\MessageBar.cshtml
11632 15:27:00 INFO  Precompiling SPEAK View: ~\sitecore\shell\client\Business Component Library\Layouts\Renderings\Common\ProgressBars\ProgressBar.cshtml
17932 15:27:00 INFO  Precompiling SPEAK View: ~\sitecore\shell\client\Applications\ContentTesting\Components\DataSource\ReachDataSource\ReachDataSource.cshtml
17932 15:27:00 INFO  Precompiling SPEAK View: ~\sitecore\shell\client\Applications\ContentTesting\Components\DataSource\ReportingDatesDataSource\ReportingDatesDataSource.cshtml
11632 15:27:00 INFO  Precompiling SPEAK View: ~\sitecore\shell\client\Business Component Library\Layouts\Renderings\Common\ProgressIndicators\ProgressIndicator.cshtml
11632 15:27:00 INFO  Precompiling SPEAK View: ~\sitecore\shell\client\Business Component Library\Layouts\Renderings\Common\RadioButtons\RadioButton.cshtml
17932 15:27:01 INFO  Precompiling SPEAK View: ~\sitecore\shell\client\Applications\ContentTesting\Components\DataSource\RulePerformanceDataSource\RulePerformanceDataSource.cshtml
11632 15:27:01 INFO  Precompiling SPEAK View: ~\sitecore\shell\client\Business Component Library\Layouts\Renderings\Common\Separators\Separator.cshtml
11632 15:27:01 INFO  Precompiling SPEAK View: ~\sitecore\shell\client\Business Component Library\Layouts\Renderings\Common\SheerUI\SheerUI.cshtml
17932 15:27:01 INFO  Precompiling SPEAK View: ~\sitecore\shell\client\Applications\ContentTesting\Components\DataSource\RulesDataSource\RulesDataSource.cshtml
17932 15:27:01 INFO  Precompiling SPEAK View: ~\sitecore\shell\client\Applications\ContentTesting\Components\DataSource\RuleSetPerformanceDataSource\RuleSetPerformanceDataSource.cshtml
11632 15:27:01 INFO  Precompiling SPEAK View: ~\sitecore\shell\client\Business Component Library\Layouts\Renderings\Common\Slider\Slider.cshtml
11632 15:27:01 INFO  Precompiling SPEAK View: ~\sitecore\shell\client\Business Component Library\Layouts\Renderings\Common\SubAppRenderes\SubAppRenderer.cshtml
17932 15:27:01 INFO  Precompiling SPEAK View: ~\sitecore\shell\client\Applications\ContentTesting\Components\DataSource\SitecoreQueryDataSource\SitecoreQueryDataSource.cshtml
17932 15:27:01 INFO  Precompiling SPEAK View: ~\sitecore\shell\client\Applications\ContentTesting\Components\DataSource\SiteUsageDataSource\SiteUsageDataSource.cshtml
11632 15:27:01 INFO  Precompiling SPEAK View: ~\sitecore\shell\client\Business Component Library\Layouts\Renderings\Common\TextAreas\TextArea.cshtml
11632 15:27:01 INFO  Precompiling SPEAK View: ~\sitecore\shell\client\Business Component Library\Layouts\Renderings\Common\TextBoxes\ButtonTextBox.cshtml
17932 15:27:01 INFO  Precompiling SPEAK View: ~\sitecore\shell\client\Applications\ContentTesting\Components\DataSource\TestCandidatesDataSource\TestCandidatesDataSource.cshtml
17932 15:27:01 INFO  Precompiling SPEAK View: ~\sitecore\shell\client\Applications\ContentTesting\Components\DataSource\TestDefinitionDataSource\TestDefinitionDataSource.cshtml
11632 15:27:01 INFO  Precompiling SPEAK View: ~\sitecore\shell\client\Business Component Library\Layouts\Renderings\Common\TextBoxes\TextBox.cshtml
11632 15:27:01 INFO  Precompiling SPEAK View: ~\sitecore\shell\client\Business Component Library\Layouts\Renderings\Common\Texts\Text.cshtml
17932 15:27:01 INFO  Precompiling SPEAK View: ~\sitecore\shell\client\Applications\ContentTesting\Components\DataSource\TestDurationDataSource\TestDurationDataSource.cshtml
17932 15:27:01 INFO  Precompiling SPEAK View: ~\sitecore\shell\client\Applications\ContentTesting\Components\DataSource\TestExpectationsDataSource\TestExpectationsDataSource.cshtml
11632 15:27:01 INFO  Precompiling SPEAK View: ~\sitecore\shell\client\Business Component Library\Layouts\Renderings\Common\Timelines\Timeline.cshtml
17932 15:27:01 INFO  Precompiling SPEAK View: ~\sitecore\shell\client\Applications\ContentTesting\Components\DataSource\TestObjectivesDataSource\TestObjectivesDataSource.cshtml
17932 15:27:01 INFO  Precompiling SPEAK View: ~\sitecore\shell\client\Applications\ContentTesting\Components\DataSource\TestOutcomesDataSource\TestOutcomesDataSource.cshtml
11632 15:27:01 INFO  Precompiling SPEAK View: ~\sitecore\shell\client\Business Component Library\Layouts\Renderings\Common\TimePickers\TimePicker.cshtml
17932 15:27:01 INFO  Precompiling SPEAK View: ~\sitecore\shell\client\Applications\ContentTesting\Components\DataSource\TestsDataSource\TestsDataSource.cshtml
11632 15:27:01 INFO  Precompiling SPEAK View: ~\sitecore\shell\client\Business Component Library\Layouts\Renderings\Common\Tooltips\ToolTip.cshtml
11632 15:27:01 INFO  Precompiling SPEAK View: ~\sitecore\shell\client\Business Component Library\Layouts\Renderings\Configuration\SinglePageAppConfiguration.cshtml
17932 15:27:01 INFO  Precompiling SPEAK View: ~\sitecore\shell\client\Applications\ContentTesting\Components\DataSource\TestSummary\TestSummary.cshtml
11632 15:27:01 INFO  Precompiling SPEAK View: ~\sitecore\shell\client\Business Component Library\Layouts\Renderings\Containers\AdvancedExpanders\AdvancedExpander.cshtml
11632 15:27:01 INFO  Precompiling SPEAK View: ~\sitecore\shell\client\Business Component Library\Layouts\Renderings\Containers\Borders\Border.cshtml
17932 15:27:01 INFO  Precompiling SPEAK View: ~\sitecore\shell\client\Applications\ContentTesting\Components\DataSource\TestVariablesDataSource\TestVariablesDataSource.cshtml
11632 15:27:01 INFO  Precompiling SPEAK View: ~\sitecore\shell\client\Business Component Library\Layouts\Renderings\Containers\Borders\ProtectedBorder.cshtml
11632 15:27:01 INFO  Precompiling SPEAK View: ~\sitecore\shell\client\Business Component Library\Layouts\Renderings\Containers\ColumnPanels\ColumnPanel.cshtml
17932 15:27:01 INFO  Precompiling SPEAK View: ~\sitecore\shell\client\Applications\ContentTesting\Components\DataSource\TestVariationsDataSource\TestVariationsDataSource.cshtml
11632 15:27:01 INFO  Precompiling SPEAK View: ~\sitecore\shell\client\Business Component Library\Layouts\Renderings\Containers\Expanders\Expander.cshtml
11632 15:27:01 INFO  Precompiling SPEAK View: ~\sitecore\shell\client\Business Component Library\Layouts\Renderings\Containers\Frames\Frame.cshtml
17932 15:27:01 INFO  Precompiling SPEAK View: ~\sitecore\shell\client\Applications\ContentTesting\Components\DataSource\TopClicksToPagesDataSource\TopClicksToPagesDataSource.cshtml
11632 15:27:01 INFO  Precompiling SPEAK View: ~\sitecore\shell\client\Business Component Library\Layouts\Renderings\Containers\LoadOnDemandPanel\LoadOnDemandPanel.cshtml
11632 15:27:01 INFO  Precompiling SPEAK View: ~\sitecore\shell\client\Business Component Library\Layouts\Renderings\Containers\Panels\Panel.cshtml
17932 15:27:01 INFO  Precompiling SPEAK View: ~\sitecore\shell\client\Applications\ContentTesting\Components\DataSource\TopGoalsDataSource\TopGoalsDataSource.cshtml
11632 15:27:01 INFO  Precompiling SPEAK View: ~\sitecore\shell\client\Business Component Library\Layouts\Renderings\Containers\Popovers\Popover.cshtml
17932 15:27:01 INFO  Precompiling SPEAK View: ~\sitecore\shell\client\Applications\ContentTesting\Components\DataSource\VariablesDataSource\VariablesDataSource.cshtml
17932 15:27:01 INFO  Precompiling SPEAK View: ~\sitecore\shell\client\Applications\ContentTesting\Components\ExperienceIndicator\ExperienceIndicator.cshtml
ManagedPoolThread #10 15:27:01 ERROR Unable to connect to server localhost:27017: No connection could be made because the target machine actively refused it 127.0.0.1:27017.
11632 15:27:01 INFO  Precompiling SPEAK View: ~\sitecore\shell\client\Business Component Library\Layouts\Renderings\Containers\Repeaters\Repeater.cshtml
11632 15:27:01 INFO  Precompiling SPEAK View: ~\sitecore\shell\client\Business Component Library\Layouts\Renderings\Containers\RowPanels\RowPanel.cshtml
17932 15:27:01 INFO  Precompiling SPEAK View: ~\sitecore\shell\client\Applications\ContentTesting\Components\FilteredComboBox\FilteredComboBox.cshtml
17932 15:27:01 INFO  Precompiling SPEAK View: ~\sitecore\shell\client\Applications\ContentTesting\Components\GroupedCheckboxList\GroupedCheckboxList.cshtml
11632 15:27:01 INFO  Precompiling SPEAK View: ~\sitecore\shell\client\Business Component Library\Layouts\Renderings\Containers\Sections\Section.cshtml
11632 15:27:01 INFO  Precompiling SPEAK View: ~\sitecore\shell\client\Business Component Library\Layouts\Renderings\Containers\SmartPanels\SmartPanel.cshtml
17932 15:27:01 INFO  Precompiling SPEAK View: ~\sitecore\shell\client\Applications\ContentTesting\Components\ImageSrc\ImageSrc.cshtml
11632 15:27:01 INFO  Precompiling SPEAK View: ~\sitecore\shell\client\Business Component Library\Layouts\Renderings\Containers\TabControls\TabControl.cshtml
17932 15:27:01 INFO  Precompiling SPEAK View: ~\sitecore\shell\client\Applications\ContentTesting\Components\KPISpot\KPISpot.cshtml
17932 15:27:01 INFO  Precompiling SPEAK View: ~\sitecore\shell\client\Applications\ContentTesting\Components\OptionsMapper\OptionsMapper.cshtml
11632 15:27:01 INFO  Precompiling SPEAK View: ~\sitecore\shell\client\Business Component Library\Layouts\Renderings\Dialogs\DialogWindow.cshtml
11632 15:27:01 INFO  Precompiling SPEAK View: ~\sitecore\shell\client\Business Component Library\Layouts\Renderings\Forms\Uploader\Uploader.cshtml
17932 15:27:01 INFO  Precompiling SPEAK View: ~\sitecore\shell\client\Applications\ContentTesting\Components\PageThumbnail\PageThumbnail.cshtml
11632 15:27:01 INFO  Precompiling SPEAK View: ~\sitecore\shell\client\Business Component Library\Layouts\Renderings\Forms\UploaderInfo\UploaderInfo.cshtml
11632 15:27:01 INFO  Precompiling SPEAK View: ~\sitecore\shell\client\Business Component Library\Layouts\Renderings\Indicators\ArrowIndicator.cshtml
17932 15:27:01 INFO  Precompiling SPEAK View: ~\sitecore\shell\client\Applications\ContentTesting\Components\ProgressBarCustom\ProgressBarCustom.cshtml
17932 15:27:01 INFO  Precompiling SPEAK View: ~\sitecore\shell\client\Applications\ContentTesting\Components\QueryStringParameterResolver\QueryStringParameterResolver.cshtml
11632 15:27:01 INFO  Precompiling SPEAK View: ~\sitecore\shell\client\Business Component Library\Layouts\Renderings\Indicators\ValueLabel.cshtml
17932 15:27:01 INFO  Precompiling SPEAK View: ~\sitecore\shell\client\Applications\ContentTesting\Components\ResizableFrameGrip\ResizableFrameGrip.cshtml
17932 15:27:02 INFO  Precompiling SPEAK View: ~\sitecore\shell\client\Applications\ContentTesting\Components\ScoreGainedSpot\ScoreGainedSpot.cshtml
11632 15:27:02 INFO  Precompiling SPEAK View: ~\sitecore\shell\client\Business Component Library\Layouts\Renderings\ListsAndGrids\Carousels\Carousel.cshtml
11632 15:27:02 INFO  Precompiling SPEAK View: ~\sitecore\shell\client\Business Component Library\Layouts\Renderings\ListsAndGrids\ListControls\DefaultTile.cshtml
11632 15:27:02 INFO  Precompiling SPEAK View: ~\sitecore\shell\client\Business Component Library\Layouts\Renderings\ListsAndGrids\ListControls\ListControl.cshtml
17932 15:27:02 INFO  Precompiling SPEAK View: ~\sitecore\shell\client\Applications\ContentTesting\Components\SliderAdvanced\SliderAdvanced.cshtml
11632 15:27:02 INFO  Precompiling SPEAK View: ~\sitecore\shell\client\Business Component Library\Layouts\Renderings\ListsAndGrids\TreeViews\ItemTreeView.cshtml
11632 15:27:02 INFO  Precompiling SPEAK View: ~\sitecore\shell\client\Business Component Library\Layouts\Renderings\Navigation\Breadcrumbs\Breadcrumb.cshtml
11632 15:27:02 INFO  Precompiling SPEAK View: ~\sitecore\shell\client\Business Component Library\Layouts\Renderings\Navigation\HyperlinkButtonsGroups\HyperlinkButtonsGroup.cshtml
17932 15:27:02 INFO  Precompiling SPEAK View: ~\sitecore\shell\client\Applications\ContentTesting\Components\StateListControl\StateListControl.cshtml
17932 15:27:02 INFO  Precompiling SPEAK View: ~\sitecore\shell\client\Applications\ContentTesting\Components\TestActions\TestActions.cshtml
11632 15:27:02 INFO  Precompiling SPEAK View: ~\sitecore\shell\client\Business Component Library\Layouts\Renderings\Navigation\Menus\Menu.cshtml
17932 15:27:02 INFO  Precompiling SPEAK View: ~\sitecore\shell\client\Applications\ContentTesting\Components\TestOptions\TestOptions.cshtml
17932 15:27:02 INFO  Precompiling SPEAK View: ~\sitecore\shell\client\Applications\ContentTesting\Components\UnorderedList\UnorderedList.cshtml
11632 15:27:02 INFO  Precompiling SPEAK View: ~\sitecore\shell\client\Business Component Library\Layouts\Renderings\Navigation\NavigationPanelToggleButtons\NavigationPanelToggleButton.cshtml
11632 15:27:02 INFO  Precompiling SPEAK View: ~\sitecore\shell\client\Business Component Library\Layouts\Renderings\SearchingAndFiltering\FilterControls\FilterControl.cshtml
17932 15:27:02 INFO  Precompiling SPEAK View: ~\sitecore\shell\client\Applications\ContentTesting\Components\ValueBar\ValueBar.cshtml
11632 15:27:02 INFO  Precompiling SPEAK View: ~\sitecore\shell\client\Business Component Library\Layouts\Renderings\SearchingAndFiltering\Searches\SearchPanel.cshtml
11632 15:27:02 INFO  Precompiling SPEAK View: ~\sitecore\shell\client\Business Component Library\Layouts\Renderings\Silverlight\SilverlightFrame\SilverlightFrame.cshtml
17932 15:27:02 INFO  Precompiling SPEAK View: ~\sitecore\shell\client\Applications\ContentTesting\Components\WrappingLink\WrappingLink.cshtml
17932 15:27:02 INFO  Precompiling SPEAK View: ~\sitecore\shell\client\Applications\ContentTesting\Components\ZoomFrame\ZoomFrame.cshtml
11632 15:27:02 INFO  Precompiling SPEAK View: ~\sitecore\shell\client\Business Component Library\Layouts\Renderings\Structures\Page Structures\Application\Dashboard.cshtml
17932 15:27:02 INFO  Precompiling SPEAK Views: Done - time taking: 1963 milliseconds.
11632 15:27:02 INFO  Precompiling SPEAK View: ~\sitecore\shell\client\Business Component Library\Layouts\Renderings\Structures\Page Structures\Application\List.cshtml
11632 15:27:02 INFO  Precompiling SPEAK View: ~\sitecore\shell\client\Business Component Library\Layouts\Renderings\Structures\Page Structures\Application\Task.cshtml
11632 15:27:02 INFO  Precompiling SPEAK View: ~\sitecore\shell\client\Business Component Library\Layouts\Renderings\Structures\Page Structures\Dialog\Dialog.cshtml
11632 15:27:02 INFO  Precompiling SPEAK View: ~\sitecore\shell\client\Business Component Library\Layouts\Renderings\Structures\Page Structures\Framework\SearchResults.cshtml
11632 15:27:02 INFO  Precompiling SPEAK View: ~\sitecore\shell\client\Business Component Library\Layouts\Renderings\Structures\Page Structures\Framework\Start.cshtml
11632 15:27:02 INFO  Precompiling SPEAK View: ~\sitecore\shell\client\Business Component Library\Layouts\Renderings\Structures\Substructures\ApplicationContentM.cshtml
11632 15:27:02 INFO  Precompiling SPEAK View: ~\sitecore\shell\client\Business Component Library\Layouts\Renderings\Structures\Substructures\ApplicationContentMI.cshtml
11632 15:27:02 INFO  Precompiling SPEAK View: ~\sitecore\shell\client\Business Component Library\Layouts\Renderings\Structures\Substructures\ApplicationContentNM.cshtml
11632 15:27:02 INFO  Precompiling SPEAK View: ~\sitecore\shell\client\Business Component Library\Layouts\Renderings\Structures\Substructures\ApplicationContentNMI.cshtml
11632 15:27:02 INFO  Precompiling SPEAK View: ~\sitecore\shell\client\Business Component Library\Layouts\Renderings\Structures\Substructures\ApplicationHeader.cshtml
11632 15:27:02 INFO  Precompiling SPEAK View: ~\sitecore\shell\client\Business Component Library\Layouts\Renderings\Structures\Substructures\DialogContentM.cshtml
11632 15:27:02 INFO  Precompiling SPEAK View: ~\sitecore\shell\client\Business Component Library\Layouts\Renderings\Structures\Substructures\DialogContentMI.cshtml
11632 15:27:02 INFO  Precompiling SPEAK View: ~\sitecore\shell\client\Business Component Library\Layouts\Renderings\Structures\Substructures\DialogContentNM.cshtml
11632 15:27:02 INFO  Precompiling SPEAK View: ~\sitecore\shell\client\Business Component Library\Layouts\Renderings\Structures\Substructures\DialogFooter.cshtml
11632 15:27:02 INFO  Precompiling SPEAK View: ~\sitecore\shell\client\Business Component Library\Layouts\Renderings\Structures\Substructures\DialogHeader.cshtml
11632 15:27:02 INFO  Precompiling SPEAK View: ~\sitecore\shell\client\Business Component Library\Layouts\Renderings\Structures\Substructures\FrameworkContentM.cshtml
11632 15:27:02 INFO  Precompiling SPEAK View: ~\sitecore\shell\client\Business Component Library\Layouts\Renderings\Structures\Substructures\GlobalFooter.cshtml
11632 15:27:02 INFO  Precompiling SPEAK View: ~\sitecore\shell\client\Business Component Library\Layouts\Renderings\Structures\Substructures\GlobalHeader.cshtml
11632 15:27:02 INFO  Precompiling SPEAK Views: Done - time taking: 2025 milliseconds.
11028 15:27:02 INFO  Scheduler - Adding agents
11028 15:27:02 INFO  Scheduler - Adding agent: Sitecore.Tasks.UrlAgent (interval: 00:15:00)
11028 15:27:02 INFO  Scheduler - Adding agent: Sitecore.Tasks.TaskDatabaseAgent (interval: 00:10:00)
11028 15:27:02 INFO  Scheduler - Adding agent: Sitecore.Tasks.CompactClientDataAgent (interval: 04:00:00)
11028 15:27:02 INFO  Scheduler - Adding agent: Sitecore.Tasks.CleanupHistory (interval: 04:00:00)
11028 15:27:02 INFO  Scheduler - Adding agent: Sitecore.Tasks.CleanupPublishQueue (interval: 04:00:00)
11028 15:27:02 INFO  Scheduler - Adding agent: Sitecore.Tasks.CleanupEventQueue (interval: 04:00:00)
11028 15:27:02 INFO  Scheduler - Skipping inactive agent: Sitecore.Tasks.HtmlCacheClearAgent
11028 15:27:02 INFO  Scheduler - Adding agent: Sitecore.Tasks.CleanupAuthenticationTicketsAgent (interval: 04:00:00)
11028 15:27:02 INFO  Scheduler - Skipping inactive agent: Sitecore.Tasks.PublishAgent
11028 15:27:02 INFO  Scheduler - Adding agent: Sitecore.Tasks.CleanupAgent (interval: 06:00:00)
11028 15:27:02 INFO  Scheduler - Adding agent: Sitecore.Tasks.CounterDumpAgent (interval: 01:00:00)
11028 15:27:02 INFO  Scheduler - Adding agent: Sitecore.Tasks.CloneNotificationsCleanupAgent (interval: 1.00:00:00)
11028 15:27:02 INFO  Scheduler - Adding agent: Sitecore.Analytics.Tasks.EmailReportsTask (interval: 01:00:00)
11028 15:27:02 INFO  Scheduler - Adding agent: Sitecore.ContentSearch.Tasks.Optimize (interval: 01:00:00)
11028 15:27:02 INFO  Scheduler - Adding agent: Core_Database_Agent (interval: 00:10:00)
11028 15:27:02 INFO  Scheduler - Adding agent: Master_Database_Agent (interval: 00:10:00)
11028 15:27:02 INFO  Scheduler - Adding agent: Sitecore.Tasks.CleanupFDAObsoleteMediaData (interval: 1.00:00:00)
11028 15:27:02 INFO  Scheduler - Adding agent: Sitecore.Tasks.WebDAVOptionsCleanupAgent (interval: 1.00:00:00)
11028 15:27:02 INFO  Scheduler - Adding agent: Sitecore.ListManagement.Analytics.UnlockContactListsAgent (interval: 00:00:10)
ManagedPoolThread #19 15:27:02 ERROR Unable to connect to server localhost:27017: No connection could be made because the target machine actively refused it 127.0.0.1:27017.
11028 15:27:03 INFO  Scheduler - Skipping inactive agent: Sitecore.Social.Client.Tasks.ManagePreExpiredAccounts
11028 15:27:03 INFO  Scheduler - Skipping inactive agent: Sitecore.Social.Client.Tasks.SynchronizeSocialMediaInfo
11028 15:27:03 INFO  Scheduler - Adding agent: Sitecore.Social.Client.Tasks.PostFlaggedMessages (interval: 01:00:00)
11028 15:27:03 INFO  Scheduler - Adding agent: Sitecore.Social.Client.Tasks.UpdateMessagesStatistics (interval: 01:00:00)
11028 15:27:03 INFO  Scheduler - Agents added
11632 15:27:03 INFO  HttpModule is being initialized
22188 15:27:03 INFO  HttpModule is being initialized
22188 15:27:04 INFO  Cache created: 'SqlDataProvider - Prefetch data(web)' (max size: 50MB, running total: 1024MB)
