﻿5956 12:44:10 INFO  [Recovery]: Setting default publish recovery strategy.
5956 12:44:10 INFO  [Recovery]: Publish Recovery Enabled - False
5956 12:44:10 INFO  [Recovery]: Publish Recovery Strategy - DatabasePublishRecoveryStrategy
5956 12:44:10 INFO  Settings.Publishing.AutoScheduleSmartPublish:True
5956 12:44:10 INFO  Settings.Publishing.CheckSecurity:False
5956 12:44:10 INFO  Settings.Publishing.CompareRevisions:True
5956 12:44:10 INFO  Settings.Publishing.DisableDatabaseCaches:False
5956 12:44:10 INFO  Settings.Publishing.ExecuteInManagedThreadPool:False
5956 12:44:10 INFO  Settings.Publishing.LogInterval:0
5956 12:44:10 INFO  Settings.Publishing.MaxDegreeOfParallelism:1
5956 12:44:10 INFO  Settings.Publishing.PublishDialogPollingInterval:500
5956 12:44:10 INFO  Settings.Publishing.PublishEmptyItems:False
5956 12:44:10 INFO  Settings.Publishing.PublishingInstance:A00078-LaunchSitecoreMvc(1)
5956 12:44:10 INFO  Settings.Publishing.RequireTargetDeleteRightWhenCheckingSecurity:True
5956 12:44:10 INFO  Settings.Publishing.StatusUpdateInterval:00:00:02
5956 12:44:10 INFO  Settings.Publishing.ThreadPriority:BelowNormal
5956 12:44:10 INFO  Settings.Publishing.TimeBeforeStatusExpires:02:00:00
