﻿20888 11:48:46 INFO  [Recovery]: Setting default publish recovery strategy.
20888 11:48:46 INFO  [Recovery]: Publish Recovery Enabled - False
20888 11:48:46 INFO  [Recovery]: Publish Recovery Strategy - DatabasePublishRecoveryStrategy
20888 11:48:46 INFO  Settings.Publishing.AutoScheduleSmartPublish:True
20888 11:48:46 INFO  Settings.Publishing.CheckSecurity:False
20888 11:48:46 INFO  Settings.Publishing.CompareRevisions:True
20888 11:48:46 INFO  Settings.Publishing.DisableDatabaseCaches:False
20888 11:48:46 INFO  Settings.Publishing.ExecuteInManagedThreadPool:False
20888 11:48:46 INFO  Settings.Publishing.LogInterval:0
20888 11:48:46 INFO  Settings.Publishing.MaxDegreeOfParallelism:1
20888 11:48:46 INFO  Settings.Publishing.PublishDialogPollingInterval:500
20888 11:48:46 INFO  Settings.Publishing.PublishEmptyItems:False
20888 11:48:46 INFO  Settings.Publishing.PublishingInstance:A00078-LaunchSitecoreMvc
20888 11:48:46 INFO  Settings.Publishing.RequireTargetDeleteRightWhenCheckingSecurity:True
20888 11:48:46 INFO  Settings.Publishing.StatusUpdateInterval:00:00:02
20888 11:48:46 INFO  Settings.Publishing.ThreadPriority:BelowNormal
20888 11:48:46 INFO  Settings.Publishing.TimeBeforeStatusExpires:02:00:00
