﻿18396 16:24:16 INFO  [Recovery]: Setting default publish recovery strategy.
18396 16:24:16 INFO  [Recovery]: Publish Recovery Enabled - False
18396 16:24:16 INFO  [Recovery]: Publish Recovery Strategy - DatabasePublishRecoveryStrategy
18396 16:24:16 INFO  Settings.Publishing.AutoScheduleSmartPublish:True
18396 16:24:16 INFO  Settings.Publishing.CheckSecurity:False
18396 16:24:16 INFO  Settings.Publishing.CompareRevisions:True
18396 16:24:16 INFO  Settings.Publishing.DisableDatabaseCaches:False
18396 16:24:16 INFO  Settings.Publishing.ExecuteInManagedThreadPool:False
18396 16:24:16 INFO  Settings.Publishing.LogInterval:0
18396 16:24:16 INFO  Settings.Publishing.MaxDegreeOfParallelism:1
18396 16:24:16 INFO  Settings.Publishing.PublishDialogPollingInterval:500
18396 16:24:16 INFO  Settings.Publishing.PublishEmptyItems:False
18396 16:24:16 INFO  Settings.Publishing.PublishingInstance:A00078-SitecoreTest
18396 16:24:16 INFO  Settings.Publishing.RequireTargetDeleteRightWhenCheckingSecurity:True
18396 16:24:16 INFO  Settings.Publishing.StatusUpdateInterval:00:00:02
18396 16:24:16 INFO  Settings.Publishing.ThreadPriority:BelowNormal
18396 16:24:16 INFO  Settings.Publishing.TimeBeforeStatusExpires:02:00:00
