﻿50624 10:58:36 INFO  [Recovery]: Setting default publish recovery strategy.
50624 10:58:36 INFO  [Recovery]: Publish Recovery Enabled - False
50624 10:58:36 INFO  [Recovery]: Publish Recovery Strategy - DatabasePublishRecoveryStrategy
50624 10:58:36 INFO  Settings.Publishing.AutoScheduleSmartPublish:True
50624 10:58:36 INFO  Settings.Publishing.CheckSecurity:False
50624 10:58:36 INFO  Settings.Publishing.CompareRevisions:True
50624 10:58:36 INFO  Settings.Publishing.DisableDatabaseCaches:False
50624 10:58:36 INFO  Settings.Publishing.ExecuteInManagedThreadPool:False
50624 10:58:36 INFO  Settings.Publishing.LogInterval:0
50624 10:58:36 INFO  Settings.Publishing.MaxDegreeOfParallelism:1
50624 10:58:36 INFO  Settings.Publishing.PublishDialogPollingInterval:500
50624 10:58:36 INFO  Settings.Publishing.PublishEmptyItems:False
50624 10:58:36 INFO  Settings.Publishing.PublishingInstance:A00078-LaunchSitecoreMvc
50624 10:58:36 INFO  Settings.Publishing.RequireTargetDeleteRightWhenCheckingSecurity:True
50624 10:58:36 INFO  Settings.Publishing.StatusUpdateInterval:00:00:02
50624 10:58:36 INFO  Settings.Publishing.ThreadPriority:BelowNormal
50624 10:58:36 INFO  Settings.Publishing.TimeBeforeStatusExpires:02:00:00
