﻿29952 17:14:35 INFO  [Recovery]: Setting default publish recovery strategy.
29952 17:14:35 INFO  [Recovery]: Publish Recovery Enabled - False
29952 17:14:35 INFO  [Recovery]: Publish Recovery Strategy - DatabasePublishRecoveryStrategy
29952 17:14:35 INFO  Settings.Publishing.AutoScheduleSmartPublish:True
29952 17:14:35 INFO  Settings.Publishing.CheckSecurity:False
29952 17:14:35 INFO  Settings.Publishing.CompareRevisions:True
29952 17:14:35 INFO  Settings.Publishing.DisableDatabaseCaches:False
29952 17:14:35 INFO  Settings.Publishing.ExecuteInManagedThreadPool:False
29952 17:14:35 INFO  Settings.Publishing.LogInterval:0
29952 17:14:35 INFO  Settings.Publishing.MaxDegreeOfParallelism:1
29952 17:14:35 INFO  Settings.Publishing.PublishDialogPollingInterval:500
29952 17:14:35 INFO  Settings.Publishing.PublishEmptyItems:False
29952 17:14:35 INFO  Settings.Publishing.PublishingInstance:A00078-SitecoreTest
29952 17:14:35 INFO  Settings.Publishing.RequireTargetDeleteRightWhenCheckingSecurity:True
29952 17:14:35 INFO  Settings.Publishing.StatusUpdateInterval:00:00:02
29952 17:14:35 INFO  Settings.Publishing.ThreadPriority:BelowNormal
29952 17:14:35 INFO  Settings.Publishing.TimeBeforeStatusExpires:02:00:00
