﻿8336 09:31:46 INFO  [Recovery]: Setting default publish recovery strategy.
8336 09:31:46 INFO  [Recovery]: Publish Recovery Enabled - False
8336 09:31:46 INFO  [Recovery]: Publish Recovery Strategy - DatabasePublishRecoveryStrategy
8336 09:31:46 INFO  Settings.Publishing.AutoScheduleSmartPublish:True
8336 09:31:46 INFO  Settings.Publishing.CheckSecurity:False
8336 09:31:46 INFO  Settings.Publishing.CompareRevisions:True
8336 09:31:46 INFO  Settings.Publishing.DisableDatabaseCaches:False
8336 09:31:46 INFO  Settings.Publishing.ExecuteInManagedThreadPool:False
8336 09:31:46 INFO  Settings.Publishing.LogInterval:0
8336 09:31:46 INFO  Settings.Publishing.MaxDegreeOfParallelism:1
8336 09:31:46 INFO  Settings.Publishing.PublishDialogPollingInterval:500
8336 09:31:46 INFO  Settings.Publishing.PublishEmptyItems:False
8336 09:31:46 INFO  Settings.Publishing.PublishingInstance:A00078-LaunchSitecoreMvc(1)
8336 09:31:46 INFO  Settings.Publishing.RequireTargetDeleteRightWhenCheckingSecurity:True
8336 09:31:46 INFO  Settings.Publishing.StatusUpdateInterval:00:00:02
8336 09:31:46 INFO  Settings.Publishing.ThreadPriority:BelowNormal
8336 09:31:46 INFO  Settings.Publishing.TimeBeforeStatusExpires:02:00:00
