﻿23324 10:32:39 INFO  Warming and Caching your search indexes
23324 10:32:39 INFO  /******* Warming Queries ********/
23324 10:32:39 INFO  /*************************/
26204 10:39:03 INFO  ExecuteQueryAgainstLucene (social_messages_master): +container:mastere46b3d096f2c4caf81397df942daf918en +(_template:a6575aec8bc54591b7308fcdc0ccddb5 _template:7e49b0aa5eba4a02852c4744e2288ac2) - Filter : 
52592 10:39:04 INFO  ExecuteQueryAgainstLucene (sitecore_testing_index): __is_running:1 - Filter : 
26204 10:39:04 INFO  ExecuteQueryAgainstLucene (sitecore_testing_index): +host:e46b3d096f2c4caf81397df942daf918en +(-__is_running:1 +*:*) - Filter : 
28308 10:39:04 INFO  ExecuteQueryAgainstLucene (sitecore_suggested_test_index): +__smallupdateddate:[00010101t0000z TO *] +__smallupdateddate:[* TO 99991231t2359z} +_latestversion:1 +_language:en - Filter : 
28308 10:39:04 INFO  ExecuteQueryAgainstLucene (sitecore_testing_index): __is_running:1 - Filter : 
8612 10:39:16 INFO  ExecuteQueryAgainstLucene (social_messages_master): +container:mastere46b3d096f2c4caf81397df942daf918en +(_template:a6575aec8bc54591b7308fcdc0ccddb5 _template:7e49b0aa5eba4a02852c4744e2288ac2) - Filter : 
16952 10:39:17 INFO  ExecuteQueryAgainstLucene (sitecore_testing_index): __is_running:1 - Filter : 
16952 10:39:17 INFO  ExecuteQueryAgainstLucene (sitecore_testing_index): +host:e46b3d096f2c4caf81397df942daf918en +(-__is_running:1 +*:*) - Filter : 
8612 10:39:17 INFO  ExecuteQueryAgainstLucene (sitecore_suggested_test_index): +__smallupdateddate:[00010101t0000z TO *] +__smallupdateddate:[* TO 99991231t2359z} +_latestversion:1 +_language:en - Filter : 
8612 10:39:17 INFO  ExecuteQueryAgainstLucene (sitecore_testing_index): __is_running:1 - Filter : 
31928 10:40:18 INFO  ExecuteQueryAgainstLucene (sitecore_testing_index): +__is_running:1 +SpanWildcardQuery(datasourceitems:*e46b3d096f2c4caf81397df942daf918*) - Filter : 
31928 10:40:20 INFO  ExecuteQueryAgainstLucene (social_messages_master): +container:mastere46b3d096f2c4caf81397df942daf918en +(_template:a6575aec8bc54591b7308fcdc0ccddb5 _template:7e49b0aa5eba4a02852c4744e2288ac2) - Filter : 
8612 10:41:05 INFO  ExecuteQueryAgainstLucene (sitecore_testing_index): +__is_running:1 +SpanWildcardQuery(datasourceitems:*30903ddfeb6344efb6628f20c7a643b8*) - Filter : 
8612 10:41:18 INFO  ExecuteQueryAgainstLucene (social_messages_master): +container:mastere46b3d096f2c4caf81397df942daf918en +(_template:a6575aec8bc54591b7308fcdc0ccddb5 _template:7e49b0aa5eba4a02852c4744e2288ac2) - Filter : 
8728 10:41:19 INFO  ExecuteQueryAgainstLucene (sitecore_testing_index): __is_running:1 - Filter : 
8612 10:41:19 INFO  ExecuteQueryAgainstLucene (sitecore_testing_index): +host:e46b3d096f2c4caf81397df942daf918en +(-__is_running:1 +*:*) - Filter : 
8728 10:41:19 INFO  ExecuteQueryAgainstLucene (sitecore_suggested_test_index): +__smallupdateddate:[00010101t0000z TO *] +__smallupdateddate:[* TO 99991231t2359z} +_latestversion:1 +_language:en - Filter : 
8728 10:41:19 INFO  ExecuteQueryAgainstLucene (sitecore_testing_index): __is_running:1 - Filter : 
27432 10:41:58 INFO  ExecuteQueryAgainstLucene (social_messages_master): +container:mastere46b3d096f2c4caf81397df942daf918en +(_template:a6575aec8bc54591b7308fcdc0ccddb5 _template:7e49b0aa5eba4a02852c4744e2288ac2) - Filter : 
21780 10:41:58 INFO  ExecuteQueryAgainstLucene (sitecore_testing_index): __is_running:1 - Filter : 
21780 10:41:58 INFO  ExecuteQueryAgainstLucene (sitecore_testing_index): +host:e46b3d096f2c4caf81397df942daf918en +(-__is_running:1 +*:*) - Filter : 
8728 10:41:58 INFO  ExecuteQueryAgainstLucene (sitecore_suggested_test_index): +__smallupdateddate:[00010101t0000z TO *] +__smallupdateddate:[* TO 99991231t2359z} +_latestversion:1 +_language:en - Filter : 
8728 10:41:58 INFO  ExecuteQueryAgainstLucene (sitecore_testing_index): __is_running:1 - Filter : 
9144 10:46:13 INFO  ExecuteQueryAgainstLucene (social_messages_master): +container:mastere46b3d096f2c4caf81397df942daf918en +(_template:a6575aec8bc54591b7308fcdc0ccddb5 _template:7e49b0aa5eba4a02852c4744e2288ac2) - Filter : 
27432 10:46:14 INFO  ExecuteQueryAgainstLucene (sitecore_testing_index): __is_running:1 - Filter : 
9144 10:46:14 INFO  ExecuteQueryAgainstLucene (sitecore_testing_index): +host:e46b3d096f2c4caf81397df942daf918en +(-__is_running:1 +*:*) - Filter : 
27432 10:46:14 INFO  ExecuteQueryAgainstLucene (sitecore_suggested_test_index): +__smallupdateddate:[00010101t0000z TO *] +__smallupdateddate:[* TO 99991231t2359z} +_latestversion:1 +_language:en - Filter : 
27432 10:46:14 INFO  ExecuteQueryAgainstLucene (sitecore_testing_index): __is_running:1 - Filter : 
