﻿15252 16:49:48 INFO  Warming and Caching your search indexes
15252 16:49:48 INFO  /******* Warming Queries ********/
15252 16:49:48 INFO  /*************************/
21160 16:50:18 INFO  ExecuteQueryAgainstLucene (sitecore_testing_index): +__is_running:1 +SpanWildcardQuery(datasourceitems:*e46b3d096f2c4caf81397df942daf918*) - Filter : 
21160 16:50:22 INFO  ExecuteQueryAgainstLucene (social_messages_master): +container:mastere46b3d096f2c4caf81397df942daf918en +(_template:a6575aec8bc54591b7308fcdc0ccddb5 _template:7e49b0aa5eba4a02852c4744e2288ac2) - Filter : 
21160 16:51:39 INFO  ExecuteQueryAgainstLucene (sitecore_testing_index): +__is_running:1 +SpanWildcardQuery(datasourceitems:*e46b3d096f2c4caf81397df942daf918*) - Filter : 
21160 16:51:39 INFO  ExecuteQueryAgainstLucene (social_messages_master): +container:mastere46b3d096f2c4caf81397df942daf918en +(_template:a6575aec8bc54591b7308fcdc0ccddb5 _template:7e49b0aa5eba4a02852c4744e2288ac2) - Filter : 
15688 16:52:32 INFO  ExecuteQueryAgainstLucene (social_messages_master): +container:mastere46b3d096f2c4caf81397df942daf918en +(_template:a6575aec8bc54591b7308fcdc0ccddb5 _template:7e49b0aa5eba4a02852c4744e2288ac2) - Filter : 
21160 16:53:42 INFO  ExecuteQueryAgainstLucene (social_messages_master): +container:mastere46b3d096f2c4caf81397df942daf918en +(_template:a6575aec8bc54591b7308fcdc0ccddb5 _template:7e49b0aa5eba4a02852c4744e2288ac2) - Filter : 
16196 16:53:43 INFO  ExecuteQueryAgainstLucene (sitecore_testing_index): __is_running:1 - Filter : 
1232 16:53:43 INFO  ExecuteQueryAgainstLucene (sitecore_testing_index): +host:e46b3d096f2c4caf81397df942daf918en +(-__is_running:1 +*:*) - Filter : 
21160 16:53:43 INFO  ExecuteQueryAgainstLucene (sitecore_suggested_test_index): +__smallupdateddate:[00010101t0000z TO *] +__smallupdateddate:[* TO 99991231t2359z} +_latestversion:1 +_language:en - Filter : 
21160 16:53:43 INFO  ExecuteQueryAgainstLucene (sitecore_testing_index): __is_running:1 - Filter : 
